(module 2-PIN-2.54mm-SMD (layer F.Cu) (tedit 55DBC9EA)
  (fp_text reference 2-PIN-2.54mm-SMD (at 0 -2.78892) (layer F.SilkS)
    (effects (font (thickness 0.3048)))
  )
  (fp_text value VAL** (at 0 3.07086) (layer F.SilkS)
    (effects (font (thickness 0.3048)))
  )
  (fp_line (start -2.72034 0) (end -2.72034 -1.5494) (layer F.SilkS) (width 0.20066))
  (fp_line (start 2.72034 -1.5494) (end 2.72034 1.5494) (layer F.SilkS) (width 0.20066))
  (fp_line (start -2.72034 1.5494) (end -2.72034 0) (layer F.SilkS) (width 0.20066))
  (pad 2 smd rect (at 1.27 0) (size 1.80086 3) (layers F.Cu F.Paste F.Mask))
  (pad 1 smd rect (at -1.27 0) (size 1.80086 3) (layers F.Cu F.Paste F.Mask))
)
