(module 3528 (layer F.Cu) (tedit 5A65F579)
  (fp_text reference REF** (at 0 -2.032) (layer F.SilkS)
    (effects (font (size 0.7 0.7) (thickness 0.15)))
  )
  (fp_text value 3528 (at 0 2.0955) (layer F.Fab)
    (effects (font (size 1 1) (thickness 0.15)))
  )
  (fp_line (start -1.8796 -1.3462) (end 1.8796 -1.3462) (layer F.SilkS) (width 0.15))
  (fp_line (start 1.8796 -1.3462) (end 1.8796 1.3208) (layer F.SilkS) (width 0.15))
  (fp_line (start 1.8796 1.3462) (end -1.8796 1.3462) (layer F.SilkS) (width 0.15))
  (fp_line (start -1.8796 -1.3462) (end -1.8796 1.3462) (layer F.SilkS) (width 0.15))
  (fp_circle (center 0 0) (end 0.2032 0.1016) (layer F.Adhes) (width 0.5))
  (pad 2 smd rect (at -1.355 0) (size 0.81 2.47) (layers F.Cu F.Paste F.Mask))
  (pad 1 smd rect (at 1.355 0) (size 0.81 2.47) (layers F.Cu F.Paste F.Mask))
)
