(module Capacitors_SMD:c_elec_10x10.5 (layer F.Cu) (tedit 5773B37F)
  (descr "SMT capacitor, aluminium electrolytic, 10x10.5")
  (attr smd)
  (fp_text reference REF** (at 0 -6.35 180) (layer F.SilkS)
    (effects (font (size 1 1) (thickness 0.15)))
  )
  (fp_text value VAL** (at 0 6.35) (layer F.Fab)
    (effects (font (size 1 1) (thickness 0.15)))
  )
  (fp_text user + (at 5.969 -2.667) (layer F.SilkS)
    (effects (font (size 1 1) (thickness 0.15)))
  )
  (fp_line (start -3.556 4.064) (end -3.937 3.81) (layer F.SilkS) (width 0.15))
  (fp_line (start -4.699 3.048) (end -3.556 4.064) (layer F.SilkS) (width 0.15))
  (fp_line (start -3.429 4.064) (end -4.699 2.921) (layer F.SilkS) (width 0.15))
  (fp_line (start -4.699 2.794) (end -3.302 4.064) (layer F.SilkS) (width 0.15))
  (fp_line (start -3.302 3.937) (end -4.699 2.667) (layer F.SilkS) (width 0.15))
  (fp_line (start -3.302 4.064) (end -3.302 3.937) (layer F.SilkS) (width 0.15))
  (fp_line (start -3.175 3.937) (end -3.302 4.064) (layer F.SilkS) (width 0.15))
  (fp_line (start -4.699 2.54) (end -3.175 3.937) (layer F.SilkS) (width 0.15))
  (fp_line (start -3.048 4.064) (end -4.699 2.413) (layer F.SilkS) (width 0.15))
  (fp_line (start -4.699 2.286) (end -2.921 4.064) (layer F.SilkS) (width 0.15))
  (fp_line (start -4.699 3.175) (end -4.699 2.286) (layer F.SilkS) (width 0.15))
  (fp_line (start -3.81 4.064) (end -4.699 3.175) (layer F.SilkS) (width 0.15))
  (fp_line (start -2.921 4.064) (end -3.81 4.064) (layer F.SilkS) (width 0.15))
  (fp_line (start -4.191 -3.048) (end -3.302 -3.937) (layer F.SilkS) (width 0.15))
  (fp_line (start -4.191 -2.921) (end -4.191 -3.048) (layer F.SilkS) (width 0.15))
  (fp_line (start -3.175 -3.937) (end -4.191 -2.921) (layer F.SilkS) (width 0.15))
  (fp_line (start -3.429 -3.937) (end -3.175 -3.937) (layer F.SilkS) (width 0.15))
  (fp_line (start -4.191 -3.175) (end -3.429 -3.937) (layer F.SilkS) (width 0.15))
  (fp_line (start -4.191 -2.794) (end -4.191 -3.175) (layer F.SilkS) (width 0.15))
  (fp_line (start -3.048 -3.937) (end -4.191 -2.794) (layer F.SilkS) (width 0.15))
  (fp_line (start -3.429 -4.064) (end -3.048 -3.937) (layer F.SilkS) (width 0.15))
  (fp_line (start -4.318 -3.175) (end -3.429 -4.064) (layer F.SilkS) (width 0.15))
  (fp_line (start -3.556 -4.064) (end -4.318 -3.302) (layer F.SilkS) (width 0.15))
  (fp_line (start -4.318 -3.429) (end -3.683 -4.064) (layer F.SilkS) (width 0.15))
  (fp_line (start -4.318 -3.429) (end -4.318 -2.667) (layer F.SilkS) (width 0.15))
  (fp_line (start -4.318 -2.667) (end -4.572 -2.54) (layer F.SilkS) (width 0.15))
  (fp_line (start -4.445 -2.54) (end -4.318 -2.667) (layer F.SilkS) (width 0.15))
  (fp_line (start -4.572 -3.175) (end -4.445 -3.175) (layer F.SilkS) (width 0.15))
  (fp_line (start -4.445 -3.429) (end -4.445 -2.667) (layer F.SilkS) (width 0.15))
  (fp_line (start -4.572 -3.175) (end -4.572 -2.413) (layer F.SilkS) (width 0.15))
  (fp_line (start -4.699 -3.175) (end -4.699 -2.286) (layer F.SilkS) (width 0.15))
  (fp_line (start -3.81 -4.064) (end -4.699 -3.175) (layer F.SilkS) (width 0.15))
  (fp_line (start -2.921 -4.064) (end -3.81 -4.064) (layer F.SilkS) (width 0.15))
  (fp_line (start -5.207 1.27) (end -5.207 5.207) (layer F.SilkS) (width 0.15))
  (fp_line (start -5.207 -1.397) (end -5.207 -1.27) (layer F.SilkS) (width 0.15))
  (fp_line (start -5.207 -5.207) (end -5.207 -1.397) (layer F.SilkS) (width 0.15))
  (fp_line (start 5.207 1.27) (end 5.207 4.445) (layer F.SilkS) (width 0.15))
  (fp_line (start 5.207 -4.445) (end 5.207 -1.27) (layer F.SilkS) (width 0.15))
  (fp_line (start 3.048 4.064) (end -2.921 4.064) (layer F.SilkS) (width 0.15))
  (fp_line (start 3.937 3.175) (end 3.937 1.27) (layer F.SilkS) (width 0.15))
  (fp_line (start 3.048 4.064) (end 3.937 3.175) (layer F.SilkS) (width 0.15))
  (fp_line (start 3.937 -3.175) (end 3.937 -1.27) (layer F.SilkS) (width 0.15))
  (fp_line (start 3.048 -4.064) (end 3.937 -3.175) (layer F.SilkS) (width 0.15))
  (fp_line (start -2.921 -4.064) (end 3.048 -4.064) (layer F.SilkS) (width 0.15))
  (fp_line (start -2.921 1.27) (end -2.921 4.064) (layer F.SilkS) (width 0.15))
  (fp_line (start -3.048 2.286) (end -3.048 3.937) (layer F.SilkS) (width 0.15))
  (fp_line (start -3.175 2.286) (end -3.175 3.81) (layer F.SilkS) (width 0.15))
  (fp_line (start -3.302 2.286) (end -3.302 3.683) (layer F.SilkS) (width 0.15))
  (fp_line (start -3.429 2.286) (end -3.429 3.556) (layer F.SilkS) (width 0.15))
  (fp_line (start -3.556 2.286) (end -3.556 3.429) (layer F.SilkS) (width 0.15))
  (fp_line (start -3.683 2.286) (end -3.683 3.302) (layer F.SilkS) (width 0.15))
  (fp_line (start -3.81 2.413) (end -3.81 3.175) (layer F.SilkS) (width 0.15))
  (fp_line (start -3.937 2.286) (end -3.937 3.048) (layer F.SilkS) (width 0.15))
  (fp_line (start -4.064 2.286) (end -4.064 2.921) (layer F.SilkS) (width 0.15))
  (fp_line (start -4.191 2.286) (end -4.191 2.794) (layer F.SilkS) (width 0.15))
  (fp_line (start -4.318 2.286) (end -4.318 2.667) (layer F.SilkS) (width 0.15))
  (fp_line (start -4.445 2.286) (end -4.445 2.54) (layer F.SilkS) (width 0.15))
  (fp_line (start -4.572 2.286) (end -4.572 2.413) (layer F.SilkS) (width 0.15))
  (fp_line (start -4.699 -2.286) (end -4.699 -1.27) (layer F.SilkS) (width 0.15))
  (fp_line (start -3.048 -2.667) (end -4.064 -2.667) (layer F.SilkS) (width 0.15))
  (fp_line (start -3.048 -2.413) (end -3.048 -2.794) (layer F.SilkS) (width 0.15))
  (fp_line (start -4.191 -2.54) (end -3.048 -2.54) (layer F.SilkS) (width 0.15))
  (fp_line (start -4.445 -2.54) (end -4.445 -2.286) (layer F.SilkS) (width 0.15))
  (fp_line (start -4.318 -2.667) (end -4.318 -2.413) (layer F.SilkS) (width 0.15))
  (fp_line (start -4.191 -2.794) (end -4.191 -2.54) (layer F.SilkS) (width 0.15))
  (fp_line (start -4.064 -2.921) (end -4.064 -2.667) (layer F.SilkS) (width 0.15))
  (fp_line (start -3.937 -3.048) (end -3.937 -2.667) (layer F.SilkS) (width 0.15))
  (fp_line (start -2.921 -2.921) (end -3.683 -2.921) (layer F.SilkS) (width 0.15))
  (fp_line (start -3.81 -2.794) (end -3.048 -2.794) (layer F.SilkS) (width 0.15))
  (fp_line (start -3.81 -3.175) (end -3.81 -2.667) (layer F.SilkS) (width 0.15))
  (fp_line (start -3.683 -3.302) (end -3.683 -2.921) (layer F.SilkS) (width 0.15))
  (fp_line (start -3.556 -3.429) (end -3.556 -2.921) (layer F.SilkS) (width 0.15))
  (fp_line (start -3.429 -3.556) (end -3.429 -2.921) (layer F.SilkS) (width 0.15))
  (fp_line (start -3.302 -3.683) (end -3.302 -2.921) (layer F.SilkS) (width 0.15))
  (fp_line (start -3.175 -3.81) (end -3.175 -2.921) (layer F.SilkS) (width 0.15))
  (fp_line (start -3.048 -3.937) (end -3.048 -2.921) (layer F.SilkS) (width 0.15))
  (fp_line (start -2.921 -4.064) (end -2.921 -2.54) (layer F.SilkS) (width 0.15))
  (fp_line (start -2.921 -1.397) (end -4.699 -1.397) (layer F.SilkS) (width 0.15))
  (fp_line (start -4.699 -1.524) (end -2.921 -1.524) (layer F.SilkS) (width 0.15))
  (fp_line (start -2.921 -1.651) (end -4.699 -1.651) (layer F.SilkS) (width 0.15))
  (fp_line (start -4.699 -1.778) (end -2.921 -1.778) (layer F.SilkS) (width 0.15))
  (fp_line (start -2.921 -1.905) (end -4.572 -1.905) (layer F.SilkS) (width 0.15))
  (fp_line (start -2.921 -2.032) (end -4.699 -2.032) (layer F.SilkS) (width 0.15))
  (fp_line (start -4.699 -2.159) (end -2.921 -2.159) (layer F.SilkS) (width 0.15))
  (fp_line (start -2.921 -2.286) (end -4.699 -2.286) (layer F.SilkS) (width 0.15))
  (fp_line (start -4.572 -2.413) (end -3.048 -2.413) (layer F.SilkS) (width 0.15))
  (fp_line (start -2.921 -1.27) (end -4.699 -1.27) (layer F.SilkS) (width 0.15))
  (fp_line (start -2.921 -2.54) (end -2.921 -1.27) (layer F.SilkS) (width 0.15))
  (fp_line (start -6.35 -5.6) (end 6.35 -5.6) (layer F.CrtYd) (width 0.05))
  (fp_line (start 6.35 -5.6) (end 6.35 5.6) (layer F.CrtYd) (width 0.05))
  (fp_line (start 6.35 5.6) (end -6.35 5.6) (layer F.CrtYd) (width 0.05))
  (fp_line (start -6.35 5.6) (end -6.35 -5.6) (layer F.CrtYd) (width 0.05))
  (fp_line (start -5.207 5.207) (end 4.445 5.207) (layer F.SilkS) (width 0.15))
  (fp_line (start 4.445 5.207) (end 5.207 4.445) (layer F.SilkS) (width 0.15))
  (fp_line (start 5.207 -4.445) (end 4.445 -5.207) (layer F.SilkS) (width 0.15))
  (fp_line (start 4.445 -5.207) (end -5.207 -5.207) (layer F.SilkS) (width 0.15))
  (fp_line (start -4.699 1.27) (end -4.699 2.286) (layer F.SilkS) (width 0.15))
  (fp_line (start -4.699 1.397) (end -2.921 1.397) (layer F.SilkS) (width 0.15))
  (fp_line (start -2.921 1.27) (end -4.699 1.27) (layer F.SilkS) (width 0.15))
  (fp_line (start -2.921 2.286) (end -4.699 2.286) (layer F.SilkS) (width 0.15))
  (fp_line (start -2.921 2.159) (end -4.699 2.159) (layer F.SilkS) (width 0.15))
  (fp_line (start -2.921 1.905) (end -4.699 1.905) (layer F.SilkS) (width 0.15))
  (fp_line (start -4.699 2.032) (end -2.921 2.032) (layer F.SilkS) (width 0.15))
  (fp_line (start -4.699 1.778) (end -2.921 1.778) (layer F.SilkS) (width 0.15))
  (fp_line (start -2.921 1.651) (end -4.572 1.651) (layer F.SilkS) (width 0.15))
  (fp_line (start -2.921 1.524) (end -4.699 1.524) (layer F.SilkS) (width 0.15))
  (pad 1 smd rect (at 4.0005 0) (size 4.0005 2.4003) (layers F.Cu F.Paste F.Mask))
  (pad 2 smd rect (at -4.0005 0) (size 4.0005 2.4003) (layers F.Cu F.Paste F.Mask))
  (model Capacitors_SMD.3dshapes/c_elec_10x10.5.wrl
    (at (xyz 0 0 0))
    (scale (xyz 1 1 1))
    (rotate (xyz 0 0 0))
  )
)
