(module CYRSTAL_75x51x14 (layer F.Cu) (tedit 574C6562)
  (fp_text reference REF** (at 0.127 -3.302) (layer F.SilkS)
    (effects (font (size 1 1) (thickness 0.15)))
  )
  (fp_text value CYRSTAL_75x51x14 (at -0.254 3.302) (layer F.Fab)
    (effects (font (size 1 1) (thickness 0.15)))
  )
  (fp_line (start 4.445 -2.54) (end -4.699 -2.54) (layer F.SilkS) (width 0.15))
  (fp_line (start -4.699 2.54) (end -4.699 -2.54) (layer F.SilkS) (width 0.15))
  (fp_line (start -4.699 2.54) (end 4.445 2.54) (layer F.SilkS) (width 0.15))
  (fp_line (start 4.445 2.54) (end 4.445 -2.54) (layer F.SilkS) (width 0.15))
  (pad 3 smd rect (at -3.302 1.27) (size 2.4 1.6) (layers F.Cu F.Paste F.Mask))
  (pad 2 smd rect (at 2.998 1.27) (size 2.4 1.6) (layers F.Cu F.Paste F.Mask))
  (pad 1 smd rect (at 2.998 -1.23) (size 2.4 1.6) (layers F.Cu F.Paste F.Mask))
  (pad 4 smd rect (at -3.302 -1.23) (size 2.4 1.6) (layers F.Cu F.Paste F.Mask))
)
