(module demon_vbat_pad (layer F.Cu) (tedit 57725BE8)
  (fp_text reference REF** (at 0 -3.556) (layer F.SilkS)
    (effects (font (size 1 1) (thickness 0.15)))
  )
  (fp_text value VBAT_in (at 0 3.556) (layer F.Fab)
    (effects (font (size 1 1) (thickness 0.15)))
  )
  (pad 1 smd rect (at -3.937 0) (size 7.5 5) (layers F.Cu F.Paste F.Mask))
  (pad 2 smd rect (at 3.937 0) (size 7.5 5) (layers F.Cu F.Paste F.Mask))
)
