(module FPC-10pin-1-1734839-0 (layer F.Cu) (tedit 5A54B81D)
  (attr smd)
  (fp_text reference REF** (at 0 -0.635) (layer F.SilkS)
    (effects (font (size 1 1) (thickness 0.15)))
  )
  (fp_text value 1-1734839-0 (at 0 2.286) (layer F.Fab)
    (effects (font (size 0.6 0.6) (thickness 0.15)))
  )
  (fp_line (start -5.207 1.524) (end -5.207 2.921) (layer F.SilkS) (width 0.15))
  (fp_line (start -5.207 2.159) (end 5.334 2.159) (layer F.SilkS) (width 0.15))
  (fp_line (start 5.334 2.921) (end 5.334 1.524) (layer F.SilkS) (width 0.15))
  (fp_line (start -5.207 2.921) (end 5.334 2.921) (layer F.SilkS) (width 0.15))
  (fp_line (start -2.54 -1.905) (end -2.794 -1.905) (layer F.SilkS) (width 0.15))
  (fp_line (start 2.54 -1.905) (end 2.794 -1.905) (layer F.SilkS) (width 0.15))
  (fp_line (start -5.461 -2.921) (end -5.461 3.175) (layer F.CrtYd) (width 0.15))
  (fp_line (start -5.461 3.175) (end 5.588 3.175) (layer F.CrtYd) (width 0.15))
  (fp_line (start 5.588 3.175) (end 5.588 -2.921) (layer F.CrtYd) (width 0.15))
  (fp_line (start 5.588 -2.921) (end -5.461 -2.921) (layer F.CrtYd) (width 0.15))
  (fp_text user %R (at 0 -0.635) (layer F.Fab)
    (effects (font (size 1 1) (thickness 0.15)))
  )
  (fp_line (start -5.207 1.524) (end -2.794 1.524) (layer F.SilkS) (width 0.15))
  (fp_line (start -2.794 2.921) (end -2.794 -1.905) (layer F.SilkS) (width 0.15))
  (fp_line (start 2.794 -1.905) (end 2.794 2.921) (layer F.SilkS) (width 0.15))
  (fp_line (start 2.794 1.524) (end 5.334 1.524) (layer F.SilkS) (width 0.15))
  (fp_line (start -4.953 1.778) (end -4.953 2.667) (layer F.SilkS) (width 0.15))
  (fp_line (start -4.953 2.667) (end -3.048 2.667) (layer F.SilkS) (width 0.15))
  (fp_line (start -3.048 2.667) (end -3.048 1.778) (layer F.SilkS) (width 0.15))
  (fp_line (start -3.048 1.778) (end -4.953 1.778) (layer F.SilkS) (width 0.15))
  (fp_line (start 3.048 1.778) (end 3.048 2.667) (layer F.SilkS) (width 0.15))
  (fp_line (start 3.048 2.667) (end 5.08 2.667) (layer F.SilkS) (width 0.15))
  (fp_line (start 5.08 2.667) (end 5.08 1.778) (layer F.SilkS) (width 0.15))
  (fp_line (start 5.08 1.778) (end 3.048 1.778) (layer F.SilkS) (width 0.15))
  (fp_line (start -5.461 -2.921) (end -5.461 3.175) (layer F.Fab) (width 0.15))
  (fp_line (start -5.461 3.175) (end 5.588 3.175) (layer F.Fab) (width 0.15))
  (fp_line (start 5.588 3.175) (end 5.588 -2.921) (layer F.Fab) (width 0.15))
  (fp_line (start 5.588 -2.921) (end -5.461 -2.921) (layer F.Fab) (width 0.15))
  (pad 1 smd rect (at -2.2479 -2.159) (size 0.3 1.3) (layers F.Cu F.Paste F.Mask))
  (pad 2 smd rect (at -1.7479 -2.159) (size 0.3 1.3) (layers F.Cu F.Paste F.Mask))
  (pad 3 smd rect (at -1.2479 -2.159) (size 0.3 1.3) (layers F.Cu F.Paste F.Mask))
  (pad 4 smd rect (at -0.7479 -2.159) (size 0.3 1.3) (layers F.Cu F.Paste F.Mask))
  (pad 5 smd rect (at -0.2479 -2.159) (size 0.3 1.3) (layers F.Cu F.Paste F.Mask))
  (pad 6 smd rect (at 0.2521 -2.159) (size 0.3 1.3) (layers F.Cu F.Paste F.Mask))
  (pad 7 smd rect (at 0.7521 -2.159) (size 0.3 1.3) (layers F.Cu F.Paste F.Mask))
  (pad 8 smd rect (at 1.2521 -2.159) (size 0.3 1.3) (layers F.Cu F.Paste F.Mask))
  (pad 9 smd rect (at 1.7521 -2.159) (size 0.3 1.3) (layers F.Cu F.Paste F.Mask))
  (pad 10 smd rect (at 2.2521 -2.159) (size 0.3 1.3) (layers F.Cu F.Paste F.Mask))
  (pad "" smd rect (at -4.064 -0.127 180) (size 2.3 3.1) (layers F.Cu F.Paste F.Mask))
  (pad "" smd rect (at 4.064 -0.127 180) (size 2.3 3.1) (layers F.Cu F.Paste F.Mask))
)
