(module Inductor_audio_TOKO (layer F.Cu) (tedit 571DCC98)
  (fp_text reference REF** (at 0.508 6.604) (layer F.SilkS)
    (effects (font (size 1 1) (thickness 0.15)))
  )
  (fp_text value Inductor_audio_TOKO (at 0 -6.604) (layer F.Fab)
    (effects (font (size 1 1) (thickness 0.15)))
  )
  (fp_circle (center 0 0) (end 5.588 0) (layer F.SilkS) (width 0.15))
  (pad 1 thru_hole circle (at -2.54 0) (size 1.5 1.5) (drill 0.7) (layers *.Cu *.Mask F.SilkS))
  (pad 1 thru_hole circle (at 2.46 0) (size 1.5 1.5) (drill 0.7) (layers *.Cu *.Mask F.SilkS))
)
