(module LED_conn_2pin (layer F.Cu) (tedit 56DF3C2E)
  (fp_text reference REF** (at 0 3.937) (layer F.SilkS)
    (effects (font (size 1 1) (thickness 0.15)))
  )
  (fp_text value LED_conn_2pin (at 0 -5.334) (layer F.Fab)
    (effects (font (size 1 1) (thickness 0.15)))
  )
  (fp_line (start -2.413 -5.842) (end 10.541 -5.842) (layer F.SilkS) (width 0.15))
  (fp_line (start -2.413 2.032) (end 10.541 2.032) (layer F.SilkS) (width 0.15))
  (pad 1 smd rect (at 9.666 0) (size 3.5 2) (layers F.Cu F.Paste F.Mask))
  (pad 2 smd rect (at 0 -4) (size 7.1 2) (layers F.Cu F.Paste F.Mask))
  (pad 1 smd rect (at 0 0) (size 7.1 2) (layers F.Cu F.Paste F.Mask))
  (pad 2 smd rect (at 9.666 -4) (size 3.5 2) (layers F.Cu F.Paste F.Mask))
)
