(module micromatch2x9 (layer F.Cu) (tedit 57725A4F)
  (fp_text reference REF** (at 0 -3.302) (layer F.SilkS)
    (effects (font (size 1 1) (thickness 0.15)))
  )
  (fp_text value Micromatch_2x9 (at 0 3.302) (layer F.Fab)
    (effects (font (size 1 1) (thickness 0.15)))
  )
  (fp_line (start 10.53338 -2.53492) (end 11.90498 -1.15062) (layer F.SilkS) (width 0.15))
  (fp_line (start -12.7 2.54) (end -12.7 -2.54) (layer F.SilkS) (width 0.15))
  (fp_line (start -12.7 -2.54) (end 10.53338 -2.53492) (layer F.SilkS) (width 0.15))
  (fp_line (start -12.7 2.54) (end 11.906 2.54) (layer F.SilkS) (width 0.15))
  (fp_line (start 11.906 2.54) (end 11.90752 -1.14776) (layer F.SilkS) (width 0.15))
  (pad 1 thru_hole circle (at 10.16 -1.27) (size 1.3 1.3) (drill 0.8) (layers *.Cu *.Mask F.SilkS))
  (pad 2 thru_hole circle (at 8.89 1.27) (size 1.3 1.3) (drill 0.8) (layers *.Cu *.Mask F.SilkS))
  (pad 3 thru_hole circle (at 7.62 -1.27) (size 1.3 1.3) (drill 0.8) (layers *.Cu *.Mask F.SilkS))
  (pad 4 thru_hole circle (at 6.35 1.27) (size 1.3 1.3) (drill 0.8) (layers *.Cu *.Mask F.SilkS))
  (pad 5 thru_hole circle (at 5.08 -1.27) (size 1.3 1.3) (drill 0.8) (layers *.Cu *.Mask F.SilkS))
  (pad 6 thru_hole circle (at 3.81 1.27) (size 1.3 1.3) (drill 0.8) (layers *.Cu *.Mask F.SilkS))
  (pad 7 thru_hole circle (at 2.54 -1.27) (size 1.3 1.3) (drill 0.8) (layers *.Cu *.Mask F.SilkS))
  (pad 8 thru_hole circle (at 1.27 1.27) (size 1.3 1.3) (drill 0.8) (layers *.Cu *.Mask F.SilkS))
  (pad 9 thru_hole circle (at 0 -1.27) (size 1.3 1.3) (drill 0.8) (layers *.Cu *.Mask F.SilkS))
  (pad 10 thru_hole circle (at -1.27 1.27) (size 1.3 1.3) (drill 0.8) (layers *.Cu *.Mask F.SilkS))
  (pad "" np_thru_hole circle (at 11.56 0.53) (size 1.5 1.5) (drill 1.5) (layers *.Cu *.Mask F.SilkS))
  (pad 11 thru_hole circle (at -2.54 -1.27) (size 1.3 1.3) (drill 0.8) (layers *.Cu *.Mask F.SilkS))
  (pad 12 thru_hole circle (at -3.81 1.27) (size 1.3 1.3) (drill 0.8) (layers *.Cu *.Mask F.SilkS))
  (pad 13 thru_hole circle (at -5.08 -1.27) (size 1.3 1.3) (drill 0.8) (layers *.Cu *.Mask F.SilkS))
  (pad 14 thru_hole circle (at -6.35 1.27) (size 1.3 1.3) (drill 0.8) (layers *.Cu *.Mask F.SilkS))
  (pad 15 thru_hole circle (at -7.62 -1.27) (size 1.3 1.3) (drill 0.8) (layers *.Cu *.Mask F.SilkS))
  (pad 16 thru_hole circle (at -8.89 1.27) (size 1.3 1.3) (drill 0.8) (layers *.Cu *.Mask F.SilkS))
  (pad 18 thru_hole circle (at -11.43 1.27) (size 1.3 1.3) (drill 0.8) (layers *.Cu *.Mask F.SilkS))
  (pad 17 thru_hole circle (at -10.16 -1.27) (size 1.3 1.3) (drill 0.8) (layers *.Cu *.Mask F.SilkS))
)
