(module PCB_FUSE_HOLDER_01530008Z (layer F.Cu) (tedit 5964715E)
  (fp_text reference REF** (at 0 -9.398) (layer F.SilkS)
    (effects (font (size 1 1) (thickness 0.15)))
  )
  (fp_text value 01530008Z (at 4.826 0 90) (layer F.Fab)
    (effects (font (size 1 1) (thickness 0.15)))
  )
  (fp_line (start 3.8 8.65) (end -3.8 8.65) (layer F.SilkS) (width 0.15))
  (fp_line (start -3.8 -8.65) (end 3.8 -8.65) (layer F.SilkS) (width 0.15))
  (fp_line (start -3.81 0) (end -3.81 -8.65) (layer F.SilkS) (width 0.15))
  (fp_line (start -3.81 0) (end -3.81 8.65) (layer F.SilkS) (width 0.15))
  (fp_line (start 3.8 0) (end 3.8 8.65) (layer F.SilkS) (width 0.15))
  (fp_line (start 3.8 0) (end 3.8 -8.65) (layer F.SilkS) (width 0.15))
  (pad 1 thru_hole circle (at 1.73 -3.81) (size 2.2 2.2) (drill 1.3) (layers *.Cu *.Mask))
  (pad 2 thru_hole circle (at -1.73 3.81) (size 2.2 2.2) (drill 1.3) (layers *.Cu *.Mask))
  (pad "" np_thru_hole circle (at 0 0) (size 3.8 3.8) (drill 3.8) (layers *.Cu *.Mask))
)
