(module pinhead-2 (layer F.Cu) (tedit 57725A93)
  (fp_text reference REF** (at 0 -2.286) (layer F.SilkS)
    (effects (font (size 1 1) (thickness 0.15)))
  )
  (fp_text value CONN_01X02 (at 0.508 2.286) (layer F.Fab)
    (effects (font (size 1 1) (thickness 0.15)))
  )
  (fp_line (start -2.159 1.524) (end -2.54 1.143) (layer F.SilkS) (width 0.15))
  (fp_line (start 0 1.143) (end -0.381 1.524) (layer F.SilkS) (width 0.15))
  (fp_line (start 0.381 1.524) (end 0 1.143) (layer F.SilkS) (width 0.15))
  (fp_line (start 1.905 -1.524) (end 1.905 -1.524) (layer F.SilkS) (width 0.15))
  (fp_line (start 0.381 -1.524) (end 2.159 -1.524) (layer F.SilkS) (width 0.15))
  (fp_line (start 0 -1.143) (end 0.381 -1.524) (layer F.SilkS) (width 0.15))
  (fp_line (start -0.381 -1.524) (end 0 -1.143) (layer F.SilkS) (width 0.15))
  (fp_line (start -2.159 -1.524) (end -0.381 -1.524) (layer F.SilkS) (width 0.15))
  (fp_line (start -2.54 1.143) (end -2.54 -1.143) (layer F.SilkS) (width 0.15))
  (fp_line (start -0.381 1.524) (end -2.159 1.524) (layer F.SilkS) (width 0.15))
  (fp_line (start 2.159 1.524) (end 0.381 1.524) (layer F.SilkS) (width 0.15))
  (fp_line (start 2.54 1.143) (end 2.159 1.524) (layer F.SilkS) (width 0.15))
  (fp_line (start 2.54 -1.143) (end 2.54 1.143) (layer F.SilkS) (width 0.15))
  (fp_line (start 2.159 -1.524) (end 2.54 -1.143) (layer F.SilkS) (width 0.15))
  (fp_line (start -2.54 -1.143) (end -2.159 -1.524) (layer F.SilkS) (width 0.15))
  (pad 1 thru_hole oval (at -1.27 0) (size 1.6 2.5) (drill 1) (layers *.Cu *.Mask F.SilkS))
  (pad 2 thru_hole oval (at 1.27 0) (size 1.6 2.5) (drill 1) (layers *.Cu *.Mask F.SilkS))
)
