(module LOGO (layer F.Cu)
  (at 0 0)
 (fp_text reference "G***" (at 0 0) (layer F.SilkS) hide
  (effects (font (thickness 0.3)))
  )
  (fp_text value "LOGO" (at 0.75 0) (layer F.SilkS) hide
  (effects (font (thickness 0.3)))
  )
  (fp_poly (pts (xy -0.816361 4.189246) (xy -0.764842 4.193181) (xy -0.726026 4.202020) (xy -0.690378 4.217604) (xy -0.664994 4.231868) (xy -0.615099 4.267693) (xy -0.572451 4.309250) (xy -0.558136 4.328414)
     (xy -0.528439 4.392925) (xy -0.507095 4.470697) (xy -0.497090 4.547688) (xy -0.499851 4.602688) (xy -0.510077 4.657196) (xy -1.128536 4.657196) (xy -1.128536 4.697444) (xy -1.118538 4.756723)
     (xy -1.092865 4.815472) (xy -1.058000 4.860152) (xy -1.046416 4.868980) (xy -0.966160 4.902329) (xy -0.881038 4.907420) (xy -0.798949 4.884840) (xy -0.739438 4.846089) (xy -0.704727 4.817332)
     (xy -0.680871 4.807207) (xy -0.655136 4.813032) (xy -0.632487 4.823558) (xy -0.587690 4.847656) (xy -0.550696 4.871269) (xy -0.549267 4.872335) (xy -0.529439 4.889613) (xy -0.528162 4.905789)
     (xy -0.545567 4.933254) (xy -0.549977 4.939361) (xy -0.605523 4.991951) (xy -0.684119 5.033612) (xy -0.778324 5.062407) (xy -0.880695 5.076396) (xy -0.983791 5.073644) (xy -1.033641 5.065305)
     (xy -1.127189 5.034478) (xy -1.197680 4.986285) (xy -1.251266 4.915913) (xy -1.269027 4.881163) (xy -1.289445 4.831968) (xy -1.301886 4.785544) (xy -1.308216 4.731053) (xy -1.310303 4.657661)
     (xy -1.310373 4.641301) (xy -1.304948 4.519114) (xy -1.294437 4.463264) (xy -1.114641 4.463264) (xy -1.109059 4.480366) (xy -1.080560 4.490848) (xy -1.026522 4.496257) (xy -0.944324 4.498137)
     (xy -0.906008 4.498247) (xy -0.818413 4.497586) (xy -0.758281 4.495301) (xy -0.721308 4.490941) (xy -0.703189 4.484053) (xy -0.699375 4.476549) (xy -0.712694 4.439398) (xy -0.746647 4.399847)
     (xy -0.792232 4.366988) (xy -0.820026 4.354718) (xy -0.897025 4.342591) (xy -0.975071 4.352701) (xy -1.042779 4.382828) (xy -1.067541 4.403017) (xy -1.099928 4.437996) (xy -1.114641 4.463264)
     (xy -1.294437 4.463264) (xy -1.286718 4.422256) (xy -1.253579 4.346120) (xy -1.203426 4.286101) (xy -1.134153 4.237592) (xy -1.123167 4.231645) (xy -1.079748 4.210736) (xy -1.039793 4.197844)
     (xy -0.993196 4.191093) (xy -0.929849 4.188605) (xy -0.890113 4.188374) (xy -0.816361 4.189246) )(layer F.SilkS) (width  0.010000)
  )
  (fp_poly (pts (xy 1.633806 4.185512) (xy 1.703001 4.198797) (xy 1.778315 4.234920) (xy 1.847629 4.292078) (xy 1.900322 4.360658) (xy 1.914956 4.390594) (xy 1.941450 4.486695) (xy 1.951448 4.594316)
     (xy 1.945790 4.704671) (xy 1.925313 4.808971) (xy 1.890855 4.898429) (xy 1.862271 4.943304) (xy 1.794407 5.004922) (xy 1.705182 5.049055) (xy 1.600910 5.073863) (xy 1.487903 5.077504)
     (xy 1.426874 5.070265) (xy 1.319152 5.037898) (xy 1.231962 4.982308) (xy 1.167021 4.904984) (xy 1.126677 4.809770) (xy 1.117471 4.749670) (xy 1.114889 4.670465) (xy 1.117196 4.611090)
     (xy 1.290521 4.611090) (xy 1.297817 4.708970) (xy 1.325361 4.793409) (xy 1.371909 4.858041) (xy 1.373855 4.859856) (xy 1.410764 4.890142) (xy 1.445105 4.905603) (xy 1.490573 4.911019)
     (xy 1.521700 4.911454) (xy 1.607978 4.902839) (xy 1.662286 4.881541) (xy 1.715070 4.833172) (xy 1.748459 4.763189) (xy 1.763334 4.669440) (xy 1.764330 4.631996) (xy 1.754682 4.525098)
     (xy 1.725391 4.442986) (xy 1.675937 4.385054) (xy 1.605800 4.350694) (xy 1.514462 4.339299) (xy 1.513934 4.339299) (xy 1.431290 4.349426) (xy 1.370414 4.381492) (xy 1.328139 4.438023)
     (xy 1.304717 4.506135) (xy 1.290521 4.611090) (xy 1.117196 4.611090) (xy 1.118285 4.583099) (xy 1.127019 4.498514) (xy 1.140446 4.427657) (xy 1.151051 4.394931) (xy 1.205412 4.304761)
     (xy 1.281932 4.235750) (xy 1.327221 4.210484) (xy 1.385608 4.193210) (xy 1.463723 4.183055) (xy 1.550234 4.180371) (xy 1.633806 4.185512) )(layer F.SilkS) (width  0.010000)
  )
  (fp_poly (pts (xy 3.491488 4.046543) (xy 3.600071 4.068376) (xy 3.683346 4.105012) (xy 3.742596 4.157160) (xy 3.779102 4.225527) (xy 3.794145 4.310821) (xy 3.793015 4.375758) (xy 3.775997 4.476574)
     (xy 3.740831 4.552417) (xy 3.685007 4.605996) (xy 3.606011 4.640016) (xy 3.535074 4.653706) (xy 3.444715 4.665143) (xy 3.669479 4.868667) (xy 3.751755 4.943411) (xy 3.812642 4.999434)
     (xy 3.854511 5.039129) (xy 3.879737 5.064891) (xy 3.890693 5.079115) (xy 3.889753 5.084193) (xy 3.882321 5.083354) (xy 3.861997 5.081029) (xy 3.818010 5.077409) (xy 3.758425 5.073136)
     (xy 3.732731 5.071433) (xy 3.595061 5.062515) (xy 3.476155 4.926756) (xy 3.419333 4.864121) (xy 3.361008 4.803572) (xy 3.309363 4.753431) (xy 3.282304 4.729585) (xy 3.207359 4.668173)
     (xy 3.213035 4.869322) (xy 3.218711 5.070470) (xy 3.122816 5.070466) (xy 3.026922 5.070463) (xy 3.027641 4.375322) (xy 3.210763 4.375322) (xy 3.210763 4.518902) (xy 3.352480 4.508843)
     (xy 3.421404 4.502253) (xy 3.482306 4.493406) (xy 3.525131 4.483866) (xy 3.534197 4.480559) (xy 3.577260 4.445955) (xy 3.598935 4.396999) (xy 3.599976 4.342150) (xy 3.581135 4.289869)
     (xy 3.543164 4.248617) (xy 3.512175 4.232905) (xy 3.456807 4.220830) (xy 3.385551 4.214308) (xy 3.313145 4.213934) (xy 3.254326 4.220305) (xy 3.246527 4.222158) (xy 3.229559 4.228741)
     (xy 3.219020 4.241745) (xy 3.213389 4.267686) (xy 3.211145 4.313081) (xy 3.210763 4.375322) (xy 3.027641 4.375322) (xy 3.027972 4.055739) (xy 3.193277 4.044456) (xy 3.356318 4.038806)
     (xy 3.491488 4.046543) )(layer F.SilkS) (width  0.010000)
  )
  (fp_poly (pts (xy 4.483215 4.030789) (xy 4.571355 4.060197) (xy 4.644410 4.111489) (xy 4.646694 4.113640) (xy 4.680947 4.151947) (xy 4.711795 4.195826) (xy 4.732254 4.234535) (xy 4.736671 4.251981)
     (xy 4.723437 4.263296) (xy 4.689557 4.281773) (xy 4.662126 4.294586) (xy 4.587581 4.327561) (xy 4.554836 4.286749) (xy 4.502250 4.242030) (xy 4.430758 4.217816) (xy 4.357885 4.212140)
     (xy 4.267712 4.225277) (xy 4.195453 4.264657) (xy 4.141193 4.330229) (xy 4.135571 4.340475) (xy 4.118005 4.377877) (xy 4.107624 4.413839) (xy 4.103116 4.457739) (xy 4.103169 4.518955)
     (xy 4.104606 4.561827) (xy 4.113831 4.671125) (xy 4.132961 4.754065) (xy 4.163627 4.814981) (xy 4.207458 4.858210) (xy 4.218815 4.865646) (xy 4.282669 4.889674) (xy 4.357399 4.895521)
     (xy 4.433151 4.884694) (xy 4.500075 4.858698) (xy 4.548317 4.819040) (xy 4.551438 4.814806) (xy 4.576994 4.778320) (xy 4.664780 4.805992) (xy 4.711957 4.822619) (xy 4.743799 4.837204)
     (xy 4.752506 4.844773) (xy 4.741707 4.874468) (xy 4.714310 4.915865) (xy 4.677486 4.959552) (xy 4.638405 4.996120) (xy 4.635424 4.998434) (xy 4.541775 5.050659) (xy 4.432596 5.078949)
     (xy 4.314371 5.082305) (xy 4.209113 5.064140) (xy 4.117886 5.029853) (xy 4.047844 4.979024) (xy 3.991566 4.905470) (xy 3.969183 4.864175) (xy 3.947845 4.819686) (xy 3.933460 4.782675)
     (xy 3.924660 4.745058) (xy 3.920076 4.698748) (xy 3.918341 4.635660) (xy 3.918085 4.562173) (xy 3.921411 4.438786) (xy 3.932461 4.340849) (xy 3.952837 4.262618) (xy 3.984146 4.198345)
     (xy 4.027992 4.142287) (xy 4.038333 4.131629) (xy 4.117633 4.073679) (xy 4.218610 4.037242) (xy 4.342355 4.021961) (xy 4.374484 4.021401) (xy 4.483215 4.030789) )(layer F.SilkS) (width  0.010000)
  )
  (fp_poly (pts (xy 5.760741 4.185652) (xy 5.858260 4.212010) (xy 5.941579 4.259098) (xy 5.967951 4.282356) (xy 6.024168 4.354084) (xy 6.057764 4.436976) (xy 6.071293 4.538037) (xy 6.071839 4.567309)
     (xy 6.071839 4.656524) (xy 5.757916 4.660834) (xy 5.443992 4.665143) (xy 5.449573 4.720698) (xy 5.466833 4.796078) (xy 5.503513 4.849189) (xy 5.563582 4.885542) (xy 5.570146 4.888132)
     (xy 5.657527 4.907563) (xy 5.740804 4.899983) (xy 5.813260 4.866483) (xy 5.839378 4.844418) (xy 5.887856 4.795940) (xy 5.957696 4.832990) (xy 6.010224 4.865058) (xy 6.033317 4.893413)
     (xy 6.027894 4.923790) (xy 5.994875 4.961923) (xy 5.980463 4.975080) (xy 5.897545 5.029106) (xy 5.795575 5.064361) (xy 5.682374 5.079060) (xy 5.565759 5.071417) (xy 5.561661 5.070714)
     (xy 5.461461 5.042607) (xy 5.383595 4.996103) (xy 5.326458 4.929046) (xy 5.288447 4.839282) (xy 5.267957 4.724656) (xy 5.264305 4.671296) (xy 5.264337 4.549110) (xy 5.271030 4.498247)
     (xy 5.453593 4.498247) (xy 5.879447 4.498247) (xy 5.863190 4.451612) (xy 5.828798 4.396367) (xy 5.771210 4.362209) (xy 5.689906 4.348854) (xy 5.674468 4.348629) (xy 5.586517 4.358576)
     (xy 5.520177 4.386976) (xy 5.478136 4.432492) (xy 5.470385 4.450080) (xy 5.453593 4.498247) (xy 5.271030 4.498247) (xy 5.277160 4.451672) (xy 5.304143 4.374059) (xy 5.346656 4.311351)
     (xy 5.371391 4.286528) (xy 5.454345 4.230463) (xy 5.551646 4.194929) (xy 5.656157 4.179975) (xy 5.760741 4.185652) )(layer F.SilkS) (width  0.010000)
  )
  (fp_poly (pts (xy -4.281702 4.170957) (xy -4.256738 4.174670) (xy -4.207328 4.177690) (xy -4.140814 4.179690) (xy -4.070559 4.180350) (xy -3.883893 4.180350) (xy -3.841001 4.383010) (xy -3.821249 4.472188)
     (xy -3.799840 4.562071) (xy -3.779453 4.641758) (xy -3.763831 4.696933) (xy -3.729551 4.808197) (xy -3.701789 4.744618) (xy -3.687754 4.707304) (xy -3.667383 4.646400) (xy -3.642919 4.568926)
     (xy -3.616606 4.481903) (xy -3.602780 4.434668) (xy -3.531532 4.188297) (xy -3.419308 4.183637) (xy -3.360787 4.181718) (xy -3.326500 4.183667) (xy -3.308922 4.191928) (xy -3.300530 4.208946)
     (xy -3.297001 4.223374) (xy -3.272263 4.327624) (xy -3.245979 4.430275) (xy -3.219458 4.527013) (xy -3.194011 4.613523) (xy -3.170946 4.685493) (xy -3.151573 4.738606) (xy -3.137202 4.768550)
     (xy -3.130197 4.772936) (xy -3.118526 4.749999) (xy -3.100988 4.702797) (xy -3.079563 4.637873) (xy -3.056231 4.561768) (xy -3.032972 4.481025) (xy -3.011767 4.402185) (xy -2.994596 4.331790)
     (xy -2.989310 4.307509) (xy -2.961259 4.172403) (xy -2.859510 4.177945) (xy -2.806227 4.181602) (xy -2.767308 4.185693) (xy -2.751960 4.189043) (xy -2.755061 4.205145) (xy -2.768339 4.243291)
     (xy -2.789248 4.296393) (xy -2.798492 4.318607) (xy -2.820208 4.373231) (xy -2.849257 4.450871) (xy -2.883044 4.544344) (xy -2.918972 4.646465) (xy -2.954445 4.750052) (xy -2.955293 4.752565)
     (xy -3.059763 5.062515) (xy -3.163079 5.067035) (xy -3.266396 5.071555) (xy -3.342079 4.773592) (xy -3.366278 4.680355) (xy -3.388737 4.597592) (xy -3.408020 4.530304) (xy -3.422691 4.483490)
     (xy -3.431313 4.462150) (xy -3.431691 4.461700) (xy -3.440815 4.471181) (xy -3.457236 4.505777) (xy -3.479078 4.560168) (xy -3.504470 4.629029) (xy -3.531538 4.707038) (xy -3.558409 4.788874)
     (xy -3.583209 4.869212) (xy -3.604065 4.942731) (xy -3.612386 4.975093) (xy -3.633852 5.062515) (xy -3.740205 5.067215) (xy -3.799837 5.068251) (xy -3.833317 5.064206) (xy -3.846003 5.054230)
     (xy -3.846559 5.050298) (xy -3.851261 5.027469) (xy -3.864255 4.979811) (xy -3.883868 4.912683) (xy -3.908428 4.831444) (xy -3.936264 4.741455) (xy -3.965704 4.648073) (xy -3.995077 4.556660)
     (xy -4.022710 4.472573) (xy -4.046932 4.401172) (xy -4.063721 4.354106) (xy -4.107226 4.236736) (xy -4.150316 4.331728) (xy -4.168572 4.375995) (xy -4.194426 4.444208) (xy -4.225606 4.530093)
     (xy -4.259844 4.627376) (xy -4.294867 4.729783) (xy -4.301404 4.749243) (xy -4.409402 5.071766) (xy -4.511938 5.067141) (xy -4.614474 5.062515) (xy -4.691666 4.761638) (xy -4.719738 4.652897)
     (xy -4.741284 4.571503) (xy -4.757418 4.513950) (xy -4.769256 4.476726) (xy -4.777912 4.456323) (xy -4.784502 4.449232) (xy -4.790093 4.451887) (xy -4.798858 4.471278) (xy -4.814805 4.514913)
     (xy -4.835941 4.576603) (xy -4.860270 4.650156) (xy -4.885798 4.729382) (xy -4.910532 4.808088) (xy -4.932475 4.880084) (xy -4.949635 4.939179) (xy -4.960016 4.979183) (xy -4.960138 4.979732)
     (xy -4.980451 5.071793) (xy -5.083718 5.067154) (xy -5.186986 5.062515) (xy -5.262789 4.809656) (xy -5.297571 4.695782) (xy -5.332257 4.586135) (xy -5.365348 4.485113) (xy -5.395346 4.397114)
     (xy -5.420753 4.326535) (xy -5.440071 4.277775) (xy -5.451565 4.255495) (xy -5.461961 4.263434) (xy -5.480738 4.298653) (xy -5.506702 4.358117) (xy -5.538661 4.438793) (xy -5.575423 4.537646)
     (xy -5.615795 4.651643) (xy -5.658585 4.777748) (xy -5.667929 4.805981) (xy -5.752468 5.062515) (xy -5.963187 5.062515) (xy -6.031707 4.792302) (xy -6.061524 4.675920) (xy -6.084998 4.587588)
     (xy -6.103103 4.524419) (xy -6.116813 4.483529) (xy -6.127101 4.462030) (xy -6.134941 4.457036) (xy -6.141307 4.465661) (xy -6.141628 4.466458) (xy -6.168383 4.537904) (xy -6.199043 4.625295)
     (xy -6.230635 4.719567) (xy -6.260189 4.811658) (xy -6.284735 4.892504) (xy -6.301303 4.953044) (xy -6.301832 4.955225) (xy -6.329582 5.070463) (xy -6.531445 5.070463) (xy -6.564847 4.955225)
     (xy -6.577621 4.913317) (xy -6.597960 4.849116) (xy -6.624015 4.768241) (xy -6.653933 4.676311) (xy -6.685863 4.578946) (xy -6.717953 4.481764) (xy -6.748353 4.390384) (xy -6.775211 4.310427)
     (xy -6.796675 4.247510) (xy -6.810894 4.207254) (xy -6.813831 4.199522) (xy -6.811072 4.189063) (xy -6.789172 4.183575) (xy -6.743410 4.182403) (xy -6.699136 4.183627) (xy -6.576260 4.188297)
     (xy -6.539802 4.365442) (xy -6.519244 4.459772) (xy -6.497071 4.552131) (xy -6.474864 4.636803) (xy -6.454202 4.708073) (xy -6.436663 4.760225) (xy -6.423827 4.787543) (xy -6.422848 4.788704)
     (xy -6.414544 4.778663) (xy -6.399085 4.742845) (xy -6.378073 4.686035) (xy -6.353108 4.613015) (xy -6.325791 4.528570) (xy -6.297724 4.437483) (xy -6.270508 4.344537) (xy -6.252485 4.279693)
     (xy -6.225577 4.180350) (xy -5.996502 4.180350) (xy -5.976960 4.279693) (xy -5.964469 4.336114) (xy -5.946775 4.406824) (xy -5.925724 4.485430) (xy -5.903162 4.565537) (xy -5.880936 4.640750)
     (xy -5.860892 4.704675) (xy -5.844875 4.750918) (xy -5.834734 4.773083) (xy -5.834393 4.773467) (xy -5.824279 4.765622) (xy -5.808140 4.731888) (xy -5.787596 4.677233) (xy -5.764271 4.606622)
     (xy -5.739786 4.525024) (xy -5.715764 4.437405) (xy -5.693827 4.348732) (xy -5.689505 4.329854) (xy -5.654021 4.172403) (xy -5.445690 4.177712) (xy -5.368144 4.179910) (xy -5.303194 4.182169)
     (xy -5.256838 4.184250) (xy -5.235070 4.185914) (xy -5.234195 4.186175) (xy -5.229796 4.202025) (xy -5.220436 4.242293) (xy -5.207640 4.300276) (xy -5.197465 4.347761) (xy -5.174937 4.448991)
     (xy -5.151629 4.544780) (xy -5.128827 4.630697) (xy -5.107814 4.702313) (xy -5.089875 4.755195) (xy -5.076295 4.784914) (xy -5.069507 4.789115) (xy -5.061012 4.770418) (xy -5.045285 4.727239)
     (xy -5.024244 4.665540) (xy -4.999804 4.591283) (xy -4.973881 4.510432) (xy -4.948391 4.428948) (xy -4.925250 4.352796) (xy -4.906374 4.287936) (xy -4.895387 4.247223) (xy -4.878133 4.178989)
     (xy -4.654605 4.188297) (xy -4.602757 4.386983) (xy -4.567016 4.521278) (xy -4.536805 4.629177) (xy -4.512461 4.709587) (xy -4.494318 4.761410) (xy -4.482712 4.783553) (xy -4.481042 4.784333)
     (xy -4.471016 4.769696) (xy -4.455188 4.729062) (xy -4.434977 4.667391) (xy -4.411803 4.589643) (xy -4.387087 4.500780) (xy -4.362249 4.405762) (xy -4.338709 4.309549) (xy -4.317887 4.217103)
     (xy -4.315685 4.206721) (xy -4.303098 4.174645) (xy -4.282955 4.170501) (xy -4.281702 4.170957) )(layer F.SilkS) (width  0.010000)
  )
  (fp_poly (pts (xy -2.503155 4.807841) (xy -2.490879 4.809415) (xy -2.430632 4.819156) (xy -2.435247 4.940835) (xy -2.439863 5.062515) (xy -2.571676 5.067143) (xy -2.703489 5.071770) (xy -2.694181 4.824882)
     (xy -2.622654 4.812278) (xy -2.562625 4.806475) (xy -2.503155 4.807841) )(layer F.SilkS) (width  0.010000)
  )
  (fp_poly (pts (xy -1.950330 4.028905) (xy -1.880510 4.033097) (xy -1.795366 4.040237) (xy -1.734653 4.047679) (xy -1.691041 4.057048) (xy -1.657200 4.069968) (xy -1.625800 4.088067) (xy -1.622317 4.090353)
     (xy -1.544949 4.159528) (xy -1.487897 4.251523) (xy -1.450945 4.366946) (xy -1.433879 4.506406) (xy -1.433916 4.625208) (xy -1.442108 4.730976) (xy -1.458093 4.812652) (xy -1.484421 4.877496)
     (xy -1.523640 4.932770) (xy -1.552268 4.962329) (xy -1.590401 4.995050) (xy -1.630149 5.019859) (xy -1.676752 5.037976) (xy -1.735452 5.050619) (xy -1.811489 5.059007) (xy -1.910104 5.064361)
     (xy -2.002754 5.067136) (xy -2.280914 5.073810) (xy -2.281636 4.599264) (xy -2.281896 4.541480) (xy -2.098123 4.541480) (xy -2.097638 4.641298) (xy -2.096284 4.730171) (xy -2.094211 4.803251)
     (xy -2.091567 4.855689) (xy -2.088502 4.882637) (xy -2.087526 4.885022) (xy -2.067793 4.889789) (xy -2.024308 4.893356) (xy -1.965105 4.895161) (xy -1.940499 4.895270) (xy -1.853877 4.892115)
     (xy -1.788900 4.882175) (xy -1.735916 4.863989) (xy -1.688498 4.836359) (xy -1.655422 4.800089) (xy -1.634784 4.749916) (xy -1.624677 4.680577) (xy -1.623197 4.586808) (xy -1.624081 4.555091)
     (xy -1.631678 4.443253) (xy -1.648057 4.358892) (xy -1.676766 4.298128) (xy -1.721352 4.257082) (xy -1.785364 4.231874) (xy -1.872348 4.218625) (xy -1.935201 4.214874) (xy -2.098123 4.208534)
     (xy -2.098123 4.541480) (xy -2.281896 4.541480) (xy -2.282185 4.477573) (xy -2.283385 4.364566) (xy -2.285136 4.264614) (xy -2.287338 4.182090) (xy -2.289889 4.121365) (xy -2.292690 4.086810)
     (xy -2.293521 4.082360) (xy -2.304683 4.040002) (xy -2.189482 4.029237) (xy -2.125488 4.026125) (xy -2.041795 4.026064) (xy -1.950330 4.028905) )(layer F.SilkS) (width  0.010000)
  )
  (fp_poly (pts (xy 0.167997 4.193429) (xy 0.246910 4.232847) (xy 0.289936 4.273723) (xy 0.332017 4.323734) (xy 0.372741 4.283010) (xy 0.451673 4.225859) (xy 0.549401 4.191089) (xy 0.646681 4.180699)
     (xy 0.734133 4.185627) (xy 0.800768 4.203193) (xy 0.856094 4.236493) (xy 0.878565 4.256220) (xy 0.907103 4.290500) (xy 0.930032 4.335636) (xy 0.948230 4.395613) (xy 0.962573 4.474418)
     (xy 0.973940 4.576035) (xy 0.983208 4.704452) (xy 0.985284 4.740933) (xy 0.990705 4.833048) (xy 0.996224 4.914170) (xy 1.001418 4.978961) (xy 1.005865 5.022081) (xy 1.008845 5.037899)
     (xy 1.003007 5.051660) (xy 0.969977 5.062279) (xy 0.914280 5.068741) (xy 0.864641 5.070246) (xy 0.783538 5.070463) (xy 0.791261 4.802940) (xy 0.793491 4.672514) (xy 0.790845 4.570373)
     (xy 0.781929 4.493201) (xy 0.765353 4.437685) (xy 0.739725 4.400511) (xy 0.703653 4.378364) (xy 0.655746 4.367930) (xy 0.607705 4.365790) (xy 0.533063 4.371066) (xy 0.477375 4.389246)
     (xy 0.438265 4.423863) (xy 0.413358 4.478445) (xy 0.400279 4.556523) (xy 0.396652 4.661629) (xy 0.396770 4.679297) (xy 0.398944 4.762309) (xy 0.403310 4.847069) (xy 0.409083 4.919720)
     (xy 0.411740 4.943304) (xy 0.417572 4.997117) (xy 0.419873 5.037111) (xy 0.418290 5.054096) (xy 0.400231 5.058622) (xy 0.359063 5.063484) (xy 0.303439 5.067677) (xy 0.299397 5.067910)
     (xy 0.187234 5.074248) (xy 0.199763 4.988907) (xy 0.204723 4.937561) (xy 0.208397 4.865015) (xy 0.210371 4.781848) (xy 0.210460 4.716151) (xy 0.205354 4.597780) (xy 0.191487 4.507668)
     (xy 0.167123 4.443070) (xy 0.130528 4.401242) (xy 0.079968 4.379440) (xy 0.013707 4.374919) (xy -0.004493 4.376081) (xy -0.068504 4.388594) (xy -0.117476 4.416059) (xy -0.152640 4.461352)
     (xy -0.175230 4.527352) (xy -0.186476 4.616933) (xy -0.187612 4.732972) (xy -0.185004 4.797464) (xy -0.180686 4.876948) (xy -0.176580 4.947025) (xy -0.173131 5.000406) (xy -0.170789 5.029806)
     (xy -0.170684 5.030725) (xy -0.171949 5.048331) (xy -0.185568 5.058632) (xy -0.218368 5.064236) (xy -0.266239 5.067247) (xy -0.317678 5.068889) (xy -0.353577 5.068488) (xy -0.365582 5.066418)
     (xy -0.365729 5.049699) (xy -0.366145 5.005343) (xy -0.366788 4.937499) (xy -0.367621 4.850318) (xy -0.368603 4.747950) (xy -0.369695 4.634547) (xy -0.369753 4.628551) (xy -0.373923 4.196245)
     (xy -0.187261 4.196245) (xy -0.193591 4.250466) (xy -0.199921 4.304686) (xy -0.151619 4.263952) (xy -0.064809 4.208329) (xy 0.029895 4.182629) (xy 0.071527 4.180350) (xy 0.167997 4.193429) )(layer F.SilkS) (width  0.010000)
  )
  (fp_poly (pts (xy 2.618763 4.176320) (xy 2.708336 4.211095) (xy 2.758780 4.246958) (xy 2.788762 4.274118) (xy 2.812773 4.299818) (xy 2.831608 4.327922) (xy 2.846063 4.362292) (xy 2.856933 4.406792)
     (xy 2.865013 4.465287) (xy 2.871099 4.541639) (xy 2.875985 4.639712) (xy 2.880468 4.763370) (xy 2.883309 4.851908) (xy 2.890203 5.070463) (xy 2.770469 5.070463) (xy 2.709862 5.070011)
     (xy 2.675002 5.067332) (xy 2.659847 5.060437) (xy 2.658355 5.047336) (xy 2.661805 5.034699) (xy 2.666618 5.005753) (xy 2.671829 4.952308) (xy 2.676851 4.881639) (xy 2.681097 4.801022)
     (xy 2.681578 4.789790) (xy 2.685152 4.659454) (xy 2.682834 4.557342) (xy 2.673232 4.480211) (xy 2.654952 4.424814) (xy 2.626601 4.387907) (xy 2.586785 4.366244) (xy 2.534112 4.356582)
     (xy 2.494994 4.355193) (xy 2.437544 4.357066) (xy 2.400122 4.365131) (xy 2.371064 4.383060) (xy 2.352960 4.399913) (xy 2.317586 4.449314) (xy 2.293216 4.517493) (xy 2.279299 4.607587)
     (xy 2.275286 4.722734) (xy 2.278352 4.825576) (xy 2.282900 4.902654) (xy 2.288151 4.969661) (xy 2.293448 5.019316) (xy 2.298052 5.044130) (xy 2.299588 5.057521) (xy 2.287645 5.065461)
     (xy 2.256472 5.069313) (xy 2.200318 5.070443) (xy 2.187057 5.070463) (xy 2.065957 5.070463) (xy 2.078066 5.002909) (xy 2.081541 4.967629) (xy 2.084587 4.906115) (xy 2.087054 4.823922)
     (xy 2.088795 4.726605) (xy 2.089662 4.619718) (xy 2.089723 4.565801) (xy 2.089271 4.196245) (xy 2.189369 4.196245) (xy 2.243636 4.196778) (xy 2.272673 4.200364) (xy 2.283038 4.209982)
     (xy 2.281292 4.228611) (xy 2.279223 4.237060) (xy 2.268979 4.277874) (xy 2.338559 4.228830) (xy 2.426423 4.184866) (xy 2.522308 4.167470) (xy 2.618763 4.176320) )(layer F.SilkS) (width  0.010000)
  )
  (fp_poly (pts (xy 5.058916 4.810035) (xy 5.078452 4.813552) (xy 5.108694 4.825149) (xy 5.123764 4.845624) (xy 5.130309 4.885411) (xy 5.131159 4.896319) (xy 5.132106 4.954004) (xy 5.128068 5.008457)
     (xy 5.126465 5.018446) (xy 5.116707 5.070463) (xy 4.863829 5.070463) (xy 4.863829 4.820522) (xy 4.947320 4.810709) (xy 5.005610 4.807374) (xy 5.058916 4.810035) )(layer F.SilkS) (width  0.010000)
  )
  (fp_poly (pts (xy 6.400010 4.247127) (xy 6.390931 4.324305) (xy 6.384050 4.412879) (xy 6.379535 4.505587) (xy 6.377555 4.595169) (xy 6.378277 4.674364) (xy 6.381870 4.735910) (xy 6.387898 4.770835)
     (xy 6.421236 4.839161) (xy 6.469764 4.881484) (xy 6.537751 4.900776) (xy 6.577500 4.902733) (xy 6.657981 4.894890) (xy 6.710001 4.874407) (xy 6.738411 4.851959) (xy 6.759767 4.824528)
     (xy 6.774966 4.787612) (xy 6.784908 4.736708) (xy 6.790491 4.667317) (xy 6.792614 4.574936) (xy 6.792252 4.462484) (xy 6.789448 4.180350) (xy 6.887621 4.180346) (xy 6.985794 4.180343)
     (xy 6.985794 5.073664) (xy 6.916023 5.064116) (xy 6.865772 5.058143) (xy 6.824936 5.054815) (xy 6.816377 5.054568) (xy 6.795807 5.048773) (xy 6.794122 5.025615) (xy 6.796887 5.013193)
     (xy 6.807272 4.971818) (xy 6.738768 5.017166) (xy 6.698560 5.040961) (xy 6.659608 5.055243) (xy 6.610881 5.062765) (xy 6.541922 5.066261) (xy 6.475843 5.066031) (xy 6.417669 5.062016)
     (xy 6.378284 5.055047) (xy 6.373842 5.053465) (xy 6.317232 5.017883) (xy 6.262692 4.964051) (xy 6.221640 4.904106) (xy 6.211460 4.880870) (xy 6.203414 4.842430) (xy 6.197833 4.778873)
     (xy 6.194626 4.688281) (xy 6.193705 4.568736) (xy 6.194003 4.506195) (xy 6.196472 4.188297) (xy 6.410026 4.178797) (xy 6.400010 4.247127) )(layer F.SilkS) (width  0.010000)
  )
  (fp_poly (pts (xy 2.435888 1.790046) (xy 2.521103 1.808062) (xy 2.612987 1.832559) (xy 2.700416 1.860186) (xy 2.772263 1.887592) (xy 2.795191 1.898268) (xy 2.902528 1.969919) (xy 2.989643 2.064534)
     (xy 3.055065 2.179407) (xy 3.097325 2.311832) (xy 3.114951 2.459101) (xy 3.115394 2.487546) (xy 3.101617 2.644724) (xy 3.060550 2.785875) (xy 2.992589 2.910594) (xy 2.898130 3.018477)
     (xy 2.777568 3.109120) (xy 2.631300 3.182120) (xy 2.459720 3.237071) (xy 2.360388 3.258423) (xy 2.309393 3.265595) (xy 2.240810 3.272226) (xy 2.160878 3.278055) (xy 2.075836 3.282823)
     (xy 1.991924 3.286266) (xy 1.915381 3.288126) (xy 1.852446 3.288140) (xy 1.809359 3.286048) (xy 1.792722 3.282165) (xy 1.797079 3.265562) (xy 1.818921 3.232510) (xy 1.853795 3.189568)
     (xy 1.861489 3.180874) (xy 1.907927 3.125245) (xy 1.961658 3.055079) (xy 2.013230 2.982864) (xy 2.028358 2.960419) (xy 2.074357 2.894198) (xy 2.108945 2.852747) (xy 2.135319 2.832600)
     (xy 2.149287 2.829286) (xy 2.212092 2.820864) (xy 2.286981 2.798926) (xy 2.360191 2.768466) (xy 2.417958 2.734478) (xy 2.424304 2.729497) (xy 2.482638 2.663630) (xy 2.517170 2.586264)
     (xy 2.527978 2.504005) (xy 2.515138 2.423461) (xy 2.478727 2.351240) (xy 2.419232 2.294222) (xy 2.381883 2.270488) (xy 2.355068 2.255580) (xy 2.351480 2.254102) (xy 2.346390 2.236374)
     (xy 2.347785 2.191237) (xy 2.355472 2.122359) (xy 2.360096 2.090109) (xy 2.370614 2.012721) (xy 2.378802 1.938024) (xy 2.383481 1.877484) (xy 2.384136 1.856123) (xy 2.384230 1.781020)
     (xy 2.435888 1.790046) )(layer F.SilkS) (width  0.010000)
  )
  (fp_poly (pts (xy 4.649249 0.755938) (xy 4.756436 0.756446) (xy 4.838046 0.757819) (xy 4.900291 0.760678) (xy 4.949382 0.765649) (xy 4.991531 0.773352) (xy 5.032950 0.784412) (xy 5.078410 0.798970)
     (xy 5.245114 0.869409) (xy 5.389124 0.961902) (xy 5.509879 1.075846) (xy 5.606822 1.210636) (xy 5.679391 1.365670) (xy 5.715554 1.486609) (xy 5.728534 1.562405) (xy 5.737862 1.659223)
     (xy 5.743206 1.766470) (xy 5.744235 1.873552) (xy 5.740615 1.969876) (xy 5.732886 2.039941) (xy 5.723447 2.085689) (xy 5.712465 2.106804) (xy 5.695067 2.110268) (xy 5.685201 2.108270)
     (xy 5.659350 2.105843) (xy 5.603510 2.103674) (xy 5.519481 2.101777) (xy 5.409062 2.100166) (xy 5.274053 2.098857) (xy 5.116255 2.097863) (xy 4.937466 2.097201) (xy 4.739486 2.096883)
     (xy 4.524116 2.096925) (xy 4.332964 2.097246) (xy 3.953100 2.098122) (xy 3.962669 2.229255) (xy 3.983704 2.378462) (xy 4.023808 2.503012) (xy 4.083958 2.604386) (xy 4.165127 2.684063)
     (xy 4.268289 2.743523) (xy 4.312630 2.760837) (xy 4.358596 2.773848) (xy 4.412806 2.782496) (xy 4.482332 2.787465) (xy 4.574246 2.789438) (xy 4.609512 2.789549) (xy 4.697764 2.789140)
     (xy 4.761731 2.787195) (xy 4.808912 2.782634) (xy 4.846809 2.774377) (xy 4.882922 2.761346) (xy 4.919462 2.744939) (xy 5.011717 2.693676) (xy 5.081556 2.634129) (xy 5.138351 2.558090)
     (xy 5.144524 2.547824) (xy 5.183960 2.480943) (xy 5.262636 2.511954) (xy 5.399732 2.573136) (xy 5.520840 2.643980) (xy 5.591138 2.693813) (xy 5.634870 2.727396) (xy 5.662898 2.754411)
     (xy 5.674119 2.779757) (xy 5.667433 2.808331) (xy 5.641738 2.845033) (xy 5.595932 2.894762) (xy 5.531274 2.960050) (xy 5.412476 3.063307) (xy 5.281834 3.144965) (xy 5.134922 3.206993)
     (xy 4.967314 3.251363) (xy 4.825712 3.274194) (xy 4.647599 3.287258) (xy 4.462563 3.284303) (xy 4.298919 3.267227) (xy 4.114478 3.225755) (xy 3.951960 3.162272) (xy 3.811929 3.077143)
     (xy 3.694946 2.970737) (xy 3.601572 2.843419) (xy 3.575033 2.794897) (xy 3.514165 2.646716) (xy 3.468743 2.478004) (xy 3.438750 2.294831) (xy 3.424166 2.103269) (xy 3.424973 1.909388)
     (xy 3.441152 1.719260) (xy 3.454118 1.645118) (xy 3.993764 1.645118) (xy 4.098978 1.654343) (xy 4.141537 1.656630) (xy 4.210895 1.658626) (xy 4.302065 1.660263) (xy 4.410058 1.661476)
     (xy 4.529884 1.662199) (xy 4.656555 1.662364) (xy 4.696933 1.662291) (xy 5.189674 1.661013) (xy 5.184223 1.613329) (xy 5.158467 1.517654) (xy 5.106735 1.425515) (xy 5.034677 1.343650)
     (xy 4.947943 1.278799) (xy 4.875278 1.244893) (xy 4.804687 1.228323) (xy 4.712976 1.218156) (xy 4.610164 1.214396) (xy 4.506270 1.217048) (xy 4.411313 1.226118) (xy 4.335313 1.241610)
     (xy 4.325739 1.244632) (xy 4.211608 1.294712) (xy 4.124079 1.360167) (xy 4.060691 1.443484) (xy 4.018988 1.547148) (xy 4.016180 1.557697) (xy 3.993764 1.645118) (xy 3.454118 1.645118)
     (xy 3.472686 1.538956) (xy 3.519555 1.374546) (xy 3.579783 1.235756) (xy 3.651809 1.130392) (xy 3.750349 1.031369) (xy 3.870172 0.943308) (xy 3.978113 0.883728) (xy 4.069616 0.841693)
     (xy 4.150352 0.809800) (xy 4.227307 0.786719) (xy 4.307465 0.771121) (xy 4.397811 0.761674) (xy 4.505331 0.757049) (xy 4.637010 0.755917) (xy 4.649249 0.755938) )(layer F.SilkS) (width  0.010000)
  )
  (fp_poly (pts (xy -4.121188 0.339481) (xy -3.937735 0.348461) (xy -3.778221 0.364113) (xy -3.640179 0.386883) (xy -3.521142 0.417215) (xy -3.418642 0.455557) (xy -3.330214 0.502352) (xy -3.253390 0.558048)
     (xy -3.225759 0.582542) (xy -3.140630 0.681494) (xy -3.076527 0.800130) (xy -3.032931 0.939985) (xy -3.009320 1.102599) (xy -3.004406 1.237224) (xy -3.015370 1.419081) (xy -3.048102 1.579465)
     (xy -3.103408 1.719205) (xy -3.182092 1.839132) (xy -3.284959 1.940077) (xy -3.412814 2.022870) (xy -3.566461 2.088342) (xy -3.746704 2.137323) (xy -3.902191 2.164061) (xy -3.965091 2.170413)
     (xy -4.051550 2.176013) (xy -4.153340 2.180489) (xy -4.262231 2.183472) (xy -4.357294 2.184567) (xy -4.669343 2.185544) (xy -4.679165 2.279271) (xy -4.689445 2.467837) (xy -4.683654 2.673875)
     (xy -4.662367 2.887776) (xy -4.631489 3.073804) (xy -4.619511 3.140556) (xy -4.615712 3.182297) (xy -4.619851 3.204673) (xy -4.625689 3.210937) (xy -4.650513 3.218978) (xy -4.698614 3.229277)
     (xy -4.761691 3.240419) (xy -4.831446 3.250989) (xy -4.899578 3.259570) (xy -4.927410 3.262398) (xy -4.972085 3.263808) (xy -5.034453 3.262494) (xy -5.097007 3.259005) (xy -5.154450 3.253436)
     (xy -5.198758 3.246753) (xy -5.220993 3.240332) (xy -5.221557 3.239863) (xy -5.224258 3.220355) (xy -5.222510 3.177197) (xy -5.216753 3.118151) (xy -5.213025 3.088862) (xy -5.206244 3.019991)
     (xy -5.200482 2.922833) (xy -5.195724 2.800877) (xy -5.191959 2.657610) (xy -5.189172 2.496519) (xy -5.187350 2.321090) (xy -5.186479 2.134811) (xy -5.186547 1.941170) (xy -5.187539 1.743654)
     (xy -5.189441 1.545748) (xy -5.192106 1.360335) (xy -4.672972 1.360335) (xy -4.672503 1.458011) (xy -4.671127 1.544673) (xy -4.668999 1.615360) (xy -4.666279 1.665111) (xy -4.663124 1.688966)
     (xy -4.662495 1.690154) (xy -4.642041 1.694921) (xy -4.595771 1.698119) (xy -4.529616 1.699802) (xy -4.449508 1.700020) (xy -4.361380 1.698826) (xy -4.271164 1.696273) (xy -4.184791 1.692411)
     (xy -4.108193 1.687294) (xy -4.083269 1.685068) (xy -3.933373 1.662046) (xy -3.810985 1.624220) (xy -3.714961 1.570565) (xy -3.644159 1.500055) (xy -3.597438 1.411662) (xy -3.573654 1.304362)
     (xy -3.569955 1.223904) (xy -3.580018 1.117080) (xy -3.609205 1.028519) (xy -3.659350 0.956830) (xy -3.732286 0.900625) (xy -3.829847 0.858513) (xy -3.953865 0.829104) (xy -4.106174 0.811008)
     (xy -4.115522 0.810305) (xy -4.259758 0.801174) (xy -4.383256 0.796289) (xy -4.483735 0.795628) (xy -4.558919 0.799169) (xy -4.606527 0.806890) (xy -4.622562 0.815157) (xy -4.639355 0.852997)
     (xy -4.652856 0.921529) (xy -4.662979 1.019813) (xy -4.669636 1.146913) (xy -4.672741 1.301892) (xy -4.672972 1.360335) (xy -5.192106 1.360335) (xy -5.192242 1.350942) (xy -5.195926 1.162722)
     (xy -5.200481 0.984575) (xy -5.205893 0.819989) (xy -5.212149 0.672450) (xy -5.219235 0.545446) (xy -5.223060 0.491059) (xy -5.232315 0.370167) (xy -5.123573 0.360014) (xy -5.078581 0.356950)
     (xy -5.007244 0.353491) (xy -4.915003 0.349837) (xy -4.807298 0.346188) (xy -4.689567 0.342741) (xy -4.569775 0.339754) (xy -4.331045 0.336727) (xy -4.121188 0.339481) )(layer F.SilkS) (width  0.010000)
  )
  (fp_poly (pts (xy -2.339451 0.740009) (xy -2.255895 0.742553) (xy -2.193371 0.746514) (xy -2.156072 0.751664) (xy -2.147741 0.755006) (xy -2.144215 0.776445) (xy -2.144992 0.828603) (xy -2.150019 0.910706)
     (xy -2.159248 1.021983) (xy -2.172625 1.161662) (xy -2.178159 1.215957) (xy -2.190941 1.342514) (xy -2.203156 1.468612) (xy -2.214224 1.587881) (xy -2.223566 1.693952) (xy -2.230606 1.780457)
     (xy -2.234466 1.835857) (xy -2.237571 1.953085) (xy -2.234174 2.076282) (xy -2.225018 2.197502) (xy -2.210847 2.308801) (xy -2.192403 2.402233) (xy -2.176558 2.454886) (xy -2.117677 2.573587)
     (xy -2.039495 2.667833) (xy -1.943116 2.736637) (xy -1.829641 2.779011) (xy -1.809992 2.783268) (xy -1.762947 2.793509) (xy -1.731262 2.806064) (xy -1.706523 2.827632) (xy -1.680313 2.864914)
     (xy -1.654923 2.906725) (xy -1.611289 2.974589) (xy -1.558441 3.049688) (xy -1.509826 3.113216) (xy -1.473596 3.161119) (xy -1.449011 3.200062) (xy -1.440005 3.223548) (xy -1.441077 3.226757)
     (xy -1.474705 3.242792) (xy -1.533694 3.255603) (xy -1.611759 3.264967) (xy -1.702613 3.270661) (xy -1.799970 3.272463) (xy -1.897543 3.270149) (xy -1.989046 3.263497) (xy -2.068194 3.252283)
     (xy -2.081964 3.249478) (xy -2.240404 3.202000) (xy -2.376199 3.132725) (xy -2.490203 3.040819) (xy -2.583271 2.925448) (xy -2.656256 2.785777) (xy -2.704782 2.641235) (xy -2.715701 2.595592)
     (xy -2.724255 2.547067) (xy -2.730855 2.490518) (xy -2.735908 2.420803) (xy -2.739824 2.332781) (xy -2.743012 2.221311) (xy -2.744808 2.137859) (xy -2.746439 2.005280) (xy -2.746558 1.859691)
     (xy -2.745268 1.711909) (xy -2.742669 1.572752) (xy -2.738864 1.453038) (xy -2.738243 1.438485) (xy -2.734311 1.326402) (xy -2.732100 1.211414) (xy -2.731654 1.102465) (xy -2.733020 1.008500)
     (xy -2.735727 0.945744) (xy -2.739791 0.861483) (xy -2.739604 0.798972) (xy -2.735245 0.762188) (xy -2.731865 0.755006) (xy -2.710668 0.749284) (xy -2.661872 0.744624) (xy -2.589660 0.741254)
     (xy -2.498210 0.739401) (xy -2.439848 0.739111) (xy -2.339451 0.740009) )(layer F.SilkS) (width  0.010000)
  )
  (fp_poly (pts (xy -0.466394 0.878191) (xy -0.470832 0.951325) (xy -0.475868 1.044725) (xy -0.480912 1.146892) (xy -0.485373 1.246324) (xy -0.485765 1.255694) (xy -0.492797 1.375038) (xy -0.502874 1.472611)
     (xy -0.515519 1.544294) (xy -0.521467 1.565644) (xy -0.534672 1.625055) (xy -0.542992 1.701701) (xy -0.546293 1.785588) (xy -0.544444 1.866721) (xy -0.537312 1.935104) (xy -0.526903 1.975972)
     (xy -0.519497 2.010458) (xy -0.513636 2.070342) (xy -0.509769 2.149251) (xy -0.508350 2.238237) (xy -0.507449 2.326310) (xy -0.505117 2.431746) (xy -0.501605 2.548703) (xy -0.497164 2.671336)
     (xy -0.492044 2.793802) (xy -0.486498 2.910257) (xy -0.480775 3.014858) (xy -0.475127 3.101760) (xy -0.469805 3.165122) (xy -0.467774 3.182947) (xy -0.457968 3.258448) (xy -0.527013 3.254961)
     (xy -0.568828 3.253300) (xy -0.634054 3.251240) (xy -0.714322 3.249022) (xy -0.801258 3.246892) (xy -0.816120 3.246555) (xy -1.036182 3.241636) (xy -1.025891 3.142751) (xy -1.018917 3.081863)
     (xy -1.011593 3.027296) (xy -1.006990 2.999084) (xy -1.004013 2.977591) (xy -1.008854 2.971286) (xy -1.025784 2.982182) (xy -1.059070 3.012293) (xy -1.082828 3.034847) (xy -1.125265 3.073985)
     (xy -1.158996 3.102625) (xy -1.177445 3.115223) (xy -1.178345 3.115394) (xy -1.196059 3.103418) (xy -1.227773 3.071104) (xy -1.268858 3.023871) (xy -1.314683 2.967139) (xy -1.360617 2.906327)
     (xy -1.379340 2.880144) (xy -1.446627 2.784221) (xy -1.368319 2.758211) (xy -1.311143 2.732126) (xy -1.249584 2.693501) (xy -1.216469 2.667467) (xy -1.155324 2.603125) (xy -1.104845 2.525818)
     (xy -1.064618 2.433210) (xy -1.034230 2.322966) (xy -1.013268 2.192753) (xy -1.001319 2.040236) (xy -0.997969 1.863079) (xy -1.002806 1.658949) (xy -1.010551 1.503712) (xy -1.017546 1.383411)
     (xy -1.024669 1.259525) (xy -1.031446 1.140392) (xy -1.037404 1.034352) (xy -1.042069 0.949741) (xy -1.042929 0.933823) (xy -1.053816 0.731163) (xy -0.456596 0.731163) (xy -0.466394 0.878191) )(layer F.SilkS) (width  0.010000)
  )
  (fp_poly (pts (xy -0.019869 2.503330) (xy 0.100896 2.524670) (xy 0.227949 2.530137) (xy 0.348715 2.519731) (xy 0.421842 2.503286) (xy 0.432330 2.501326) (xy 0.440709 2.504995) (xy 0.447625 2.518014)
     (xy 0.453725 2.544098) (xy 0.459655 2.586967) (xy 0.466061 2.650338) (xy 0.473592 2.737929) (xy 0.482893 2.853457) (xy 0.483010 2.854921) (xy 0.491614 2.959669) (xy 0.499908 3.054357)
     (xy 0.507429 3.134188) (xy 0.513714 3.194368) (xy 0.518303 3.230100) (xy 0.519846 3.237377) (xy 0.517337 3.244966) (xy 0.500700 3.250451) (xy 0.466313 3.254071) (xy 0.410553 3.256068)
     (xy 0.329798 3.256684) (xy 0.236150 3.256283) (xy 0.140566 3.255213) (xy 0.053932 3.253568) (xy -0.017907 3.251513) (xy -0.069105 3.249211) (xy -0.092795 3.247047) (xy -0.119905 3.235054)
     (xy -0.122062 3.208688) (xy -0.121298 3.205467) (xy -0.115186 3.170410) (xy -0.107497 3.110555) (xy -0.098877 3.032817) (xy -0.089971 2.944111) (xy -0.081424 2.851351) (xy -0.073881 2.761452)
     (xy -0.067987 2.681328) (xy -0.064388 2.617894) (xy -0.063580 2.586913) (xy -0.063580 2.492048) (xy -0.019869 2.503330) )(layer F.SilkS) (width  0.010000)
  )
  (fp_poly (pts (xy 1.338220 2.544244) (xy 1.442516 2.657758) (xy 1.554655 2.741367) (xy 1.676605 2.796407) (xy 1.731581 2.811406) (xy 1.774753 2.822585) (xy 1.803142 2.832676) (xy 1.807533 2.835401)
     (xy 1.803492 2.852279) (xy 1.781865 2.887211) (xy 1.746880 2.935123) (xy 1.702764 2.990945) (xy 1.653746 3.049605) (xy 1.604052 3.106031) (xy 1.557913 3.155153) (xy 1.519554 3.191897)
     (xy 1.495002 3.210290) (xy 1.461620 3.213621) (xy 1.403115 3.200717) (xy 1.360440 3.186856) (xy 1.199662 3.115120) (xy 1.059606 3.019340) (xy 0.939660 2.899039) (xy 0.871242 2.806018)
     (xy 0.809429 2.711223) (xy 0.893482 2.667903) (xy 0.944950 2.643821) (xy 1.015529 2.614024) (xy 1.094238 2.583044) (xy 1.142723 2.565078) (xy 1.307913 2.505572) (xy 1.338220 2.544244) )(layer F.SilkS) (width  0.010000)
  )
  (fp_poly (pts (xy 0.340136 1.290110) (xy 0.445852 1.332741) (xy 0.543770 1.402317) (xy 0.564232 1.421757) (xy 0.633731 1.504465) (xy 0.678346 1.591950) (xy 0.701376 1.692527) (xy 0.706462 1.780225)
     (xy 0.705788 1.849391) (xy 0.700944 1.898881) (xy 0.689085 1.940781) (xy 0.667371 1.987177) (xy 0.650385 2.018648) (xy 0.576208 2.123150) (xy 0.484045 2.203473) (xy 0.377907 2.258052)
     (xy 0.261801 2.285324) (xy 0.139739 2.283723) (xy 0.035047 2.258752) (xy -0.073957 2.205552) (xy -0.166105 2.126385) (xy -0.218339 2.059741) (xy -0.266655 1.973479) (xy -0.293040 1.884958)
     (xy -0.300167 1.783478) (xy -0.298391 1.739420) (xy -0.276666 1.620390) (xy -0.230213 1.516328) (xy -0.163097 1.428730) (xy -0.079382 1.359094) (xy 0.016864 1.308916) (xy 0.121576 1.279695)
     (xy 0.230689 1.272927) (xy 0.340136 1.290110) )(layer F.SilkS) (width  0.010000)
  )
  (fp_poly (pts (xy 1.805635 0.718448) (xy 1.832818 0.732835) (xy 1.859413 0.765706) (xy 1.870588 0.782822) (xy 1.889516 0.816300) (xy 1.915490 0.867133) (xy 1.945156 0.928125) (xy 1.975160 0.992080)
     (xy 2.002147 1.051804) (xy 2.022762 1.100100) (xy 2.033650 1.129772) (xy 2.034543 1.134498) (xy 2.019907 1.137996) (xy 1.980927 1.142563) (xy 1.924992 1.147384) (xy 1.903410 1.148938)
     (xy 1.769445 1.165288) (xy 1.657680 1.195554) (xy 1.560779 1.241892) (xy 1.537737 1.256426) (xy 1.464243 1.317959) (xy 1.417117 1.386302) (xy 1.398936 1.457597) (xy 1.398808 1.464204)
     (xy 1.413908 1.539350) (xy 1.458364 1.604548) (xy 1.531176 1.659282) (xy 1.631343 1.703040) (xy 1.757864 1.735309) (xy 1.909740 1.755575) (xy 1.975796 1.760124) (xy 2.148982 1.769260)
     (xy 2.138851 1.874085) (xy 2.130746 1.947785) (xy 2.120050 2.032095) (xy 2.111240 2.094148) (xy 2.093761 2.209386) (xy 1.972756 2.207170) (xy 1.895055 2.204474) (xy 1.804474 2.199466)
     (xy 1.719744 2.193193) (xy 1.714454 2.192728) (xy 1.534871 2.165613) (xy 1.366607 2.118265) (xy 1.214757 2.052649) (xy 1.084417 1.970730) (xy 1.036569 1.931267) (xy 0.953692 1.856753)
     (xy 0.953281 1.750936) (xy 0.942741 1.641711) (xy 0.911623 1.533854) (xy 0.890940 1.472044) (xy 0.875805 1.415399) (xy 0.869383 1.375829) (xy 0.869353 1.374815) (xy 0.881676 1.299582)
     (xy 0.918948 1.215921) (xy 0.977165 1.128538) (xy 1.052326 1.042138) (xy 1.140427 0.961427) (xy 1.237468 0.891108) (xy 1.320132 0.844876) (xy 1.418595 0.802168) (xy 1.522830 0.765312)
     (xy 1.623918 0.736897) (xy 1.712938 0.719512) (xy 1.766673 0.715269) (xy 1.805635 0.718448) )(layer F.SilkS) (width  0.010000)
  )
  (fp_poly (pts (xy 2.167455 0.708519) (xy 2.224463 0.715788) (xy 2.292963 0.727120) (xy 2.366429 0.741625) (xy 2.395611 0.748086) (xy 2.556159 0.797580) (xy 2.699105 0.867613) (xy 2.819570 0.955753)
     (xy 2.828575 0.963963) (xy 2.880560 1.017601) (xy 2.929335 1.077409) (xy 2.970777 1.137112) (xy 3.000764 1.190436) (xy 3.015174 1.231109) (xy 3.014562 1.247002) (xy 2.994221 1.269098)
     (xy 2.948158 1.293764) (xy 2.874553 1.321785) (xy 2.771586 1.353947) (xy 2.757759 1.357953) (xy 2.668686 1.383223) (xy 2.604456 1.399452) (xy 2.559398 1.406527) (xy 2.527846 1.404334)
     (xy 2.504131 1.392761) (xy 2.482583 1.371694) (xy 2.466468 1.352124) (xy 2.426417 1.308517) (xy 2.384381 1.271927) (xy 2.369224 1.261638) (xy 2.345915 1.243657) (xy 2.325317 1.216097)
     (xy 2.304175 1.172904) (xy 2.279236 1.108022) (xy 2.265183 1.068042) (xy 2.236138 0.988100) (xy 2.204668 0.908134) (xy 2.175458 0.839779) (xy 2.160926 0.809102) (xy 2.136982 0.760759)
     (xy 2.120078 0.724894) (xy 2.114017 0.709727) (xy 2.128464 0.706203) (xy 2.167455 0.708519) )(layer F.SilkS) (width  0.010000)
  )
  (fp_poly (pts (xy 0.507652 0.281003) (xy 0.505078 0.308286) (xy 0.504197 0.312788) (xy 0.500330 0.342904) (xy 0.495096 0.398653) (xy 0.488996 0.473930) (xy 0.482528 0.562633) (xy 0.477133 0.643742)
     (xy 0.468656 0.773441) (xy 0.461445 0.874490) (xy 0.455147 0.949984) (xy 0.449408 1.003021) (xy 0.443875 1.036699) (xy 0.438197 1.054115) (xy 0.432019 1.058366) (xy 0.429990 1.057521)
     (xy 0.408693 1.051409) (xy 0.365138 1.043010) (xy 0.308593 1.034102) (xy 0.306399 1.033790) (xy 0.173223 1.027221) (xy 0.032005 1.045326) (xy -0.017394 1.056719) (xy -0.058631 1.067160)
     (xy -0.069559 0.791871) (xy -0.073834 0.692237) (xy -0.078574 0.595085) (xy -0.083345 0.508492) (xy -0.087711 0.440535) (xy -0.090046 0.411065) (xy -0.099605 0.305547) (xy 0.152857 0.295258)
     (xy 0.243692 0.291162) (xy 0.327270 0.286671) (xy 0.396628 0.282213) (xy 0.444805 0.278213) (xy 0.459191 0.276455) (xy 0.495031 0.272552) (xy 0.507652 0.281003) )(layer F.SilkS) (width  0.010000)
  )
  (fp_poly (pts (xy -6.151622 -5.107494) (xy -6.145454 -5.089768) (xy -6.132535 -5.044356) (xy -6.113695 -4.974443) (xy -6.089764 -4.883217) (xy -6.061572 -4.773863) (xy -6.029949 -4.649567) (xy -5.995725 -4.513516)
     (xy -5.970127 -4.410827) (xy -5.934520 -4.267592) (xy -5.901038 -4.133188) (xy -5.870504 -4.010904) (xy -5.843744 -3.904029) (xy -5.821582 -3.815855) (xy -5.804844 -3.749671) (xy -5.794354 -3.708766)
     (xy -5.791179 -3.696967) (xy -5.798477 -3.697869) (xy -5.824368 -3.718883) (xy -5.865610 -3.757017) (xy -5.918959 -3.809281) (xy -5.977118 -3.868484) (xy -6.040690 -3.932854) (xy -6.097057 -3.987290)
     (xy -6.142470 -4.028382) (xy -6.173182 -4.052723) (xy -6.185091 -4.057563) (xy -6.197460 -4.033003) (xy -6.212944 -3.985135) (xy -6.229730 -3.922060) (xy -6.246006 -3.851877) (xy -6.259960 -3.782684)
     (xy -6.269779 -3.722581) (xy -6.273650 -3.679667) (xy -6.272617 -3.666438) (xy -6.262802 -3.636884) (xy -6.247218 -3.608219) (xy -6.223757 -3.579195) (xy -6.190310 -3.548566) (xy -6.144768 -3.515085)
     (xy -6.085022 -3.477504) (xy -6.008964 -3.434576) (xy -5.914484 -3.385054) (xy -5.799474 -3.327691) (xy -5.661825 -3.261239) (xy -5.499428 -3.184452) (xy -5.310175 -3.096083) (xy -5.300939 -3.091789)
     (xy -5.105265 -3.000553) (xy -4.935752 -2.920852) (xy -4.789543 -2.851234) (xy -4.663780 -2.790251) (xy -4.555608 -2.736450) (xy -4.462170 -2.688383) (xy -4.380609 -2.644598) (xy -4.308070 -2.603645)
     (xy -4.241694 -2.564073) (xy -4.178625 -2.524434) (xy -4.160955 -2.512985) (xy -4.048666 -2.436476) (xy -3.961295 -2.367545) (xy -3.894862 -2.300530) (xy -3.845385 -2.229767) (xy -3.808882 -2.149595)
     (xy -3.781371 -2.054351) (xy -3.759483 -1.942035) (xy -3.748222 -1.861898) (xy -3.736992 -1.758153) (xy -3.725995 -1.635084) (xy -3.715436 -1.496975) (xy -3.705518 -1.348108) (xy -3.696446 -1.192768)
     (xy -3.688423 -1.035237) (xy -3.681654 -0.879799) (xy -3.676341 -0.730738) (xy -3.672690 -0.592337) (xy -3.670904 -0.468879) (xy -3.671186 -0.364648) (xy -3.673742 -0.283927) (xy -3.678196 -0.234640)
     (xy -3.694912 -0.170702) (xy -3.721056 -0.128131) (xy -3.753483 -0.111873) (xy -3.756298 -0.111859) (xy -3.779637 -0.117195) (xy -3.823764 -0.130711) (xy -3.879633 -0.149617) (xy -3.886296 -0.151973)
     (xy -3.990314 -0.191340) (xy -4.118166 -0.243679) (xy -4.265642 -0.306989) (xy -4.428532 -0.379271) (xy -4.602625 -0.458524) (xy -4.783713 -0.542748) (xy -4.967584 -0.629943) (xy -5.150030 -0.718109)
     (xy -5.326839 -0.805246) (xy -5.493803 -0.889354) (xy -5.646711 -0.968432) (xy -5.781354 -1.040482) (xy -5.893521 -1.103502) (xy -5.912301 -1.114500) (xy -6.019427 -1.183487) (xy -6.116189 -1.256861)
     (xy -6.198353 -1.330672) (xy -6.261686 -1.400970) (xy -6.301953 -1.463807) (xy -6.310716 -1.486171) (xy -6.317510 -1.524380) (xy -6.323737 -1.588636) (xy -6.329237 -1.673195) (xy -6.333850 -1.772317)
     (xy -6.337416 -1.880261) (xy -6.339776 -1.991284) (xy -6.340769 -2.099645) (xy -6.340237 -2.199603) (xy -6.338018 -2.285416) (xy -6.334596 -2.344041) (xy -6.326617 -2.425325) (xy -6.316029 -2.478543)
     (xy -6.298729 -2.507383) (xy -6.270614 -2.515533) (xy -6.227581 -2.506681) (xy -6.174545 -2.487918) (xy -6.084111 -2.451438) (xy -5.990423 -2.409394) (xy -5.899695 -2.365000) (xy -5.818142 -2.321468)
     (xy -5.751977 -2.282011) (xy -5.707417 -2.249844) (xy -5.699292 -2.242201) (xy -5.682101 -2.223272) (xy -5.669587 -2.204331) (xy -5.660669 -2.179868) (xy -5.654265 -2.144373) (xy -5.649296 -2.092338)
     (xy -5.644680 -2.018253) (xy -5.640738 -1.943720) (xy -5.634439 -1.825810) (xy -5.628687 -1.735129) (xy -5.622550 -1.667151) (xy -5.615095 -1.617350) (xy -5.605389 -1.581200) (xy -5.592501 -1.554174)
     (xy -5.575497 -1.531746) (xy -5.553444 -1.509390) (xy -5.550709 -1.506777) (xy -5.501065 -1.465126) (xy -5.428220 -1.411564) (xy -5.337053 -1.349079) (xy -5.232444 -1.280658) (xy -5.119275 -1.209291)
     (xy -5.002424 -1.137964) (xy -4.886773 -1.069666) (xy -4.777202 -1.007385) (xy -4.678591 -0.954107) (xy -4.595820 -0.912823) (xy -4.543527 -0.890143) (xy -4.447713 -0.858507) (xy -4.370114 -0.843976)
     (xy -4.313336 -0.846732) (xy -4.279988 -0.866960) (xy -4.277226 -0.871405) (xy -4.272959 -0.893781) (xy -4.267969 -0.943990) (xy -4.262502 -1.018090) (xy -4.256803 -1.112140) (xy -4.251118 -1.222199)
     (xy -4.245692 -1.344323) (xy -4.242222 -1.433719) (xy -4.222725 -1.967057) (xy -4.264731 -2.038736) (xy -4.291200 -2.076823) (xy -4.326972 -2.114756) (xy -4.374540 -2.153990) (xy -4.436402 -2.195981)
     (xy -4.515052 -2.242183) (xy -4.612985 -2.294051) (xy -4.732697 -2.353040) (xy -4.876683 -2.420605) (xy -5.047438 -2.498201) (xy -5.070463 -2.508532) (xy -5.250837 -2.590010) (xy -5.429135 -2.671769)
     (xy -5.602422 -2.752386) (xy -5.767763 -2.830438) (xy -5.922221 -2.904503) (xy -6.062860 -2.973160) (xy -6.186745 -3.034984) (xy -6.290940 -3.088554) (xy -6.372509 -3.132447) (xy -6.428516 -3.165240)
     (xy -6.436511 -3.170421) (xy -6.548983 -3.253026) (xy -6.641428 -3.337140) (xy -6.710039 -3.418966) (xy -6.743642 -3.476719) (xy -6.772258 -3.571006) (xy -6.779305 -3.682028) (xy -6.764666 -3.811648)
     (xy -6.728226 -3.961728) (xy -6.709898 -4.020666) (xy -6.686147 -4.094347) (xy -6.666849 -4.156096) (xy -6.653738 -4.200214) (xy -6.648550 -4.221003) (xy -6.648618 -4.221861) (xy -6.662966 -4.215749)
     (xy -6.700696 -4.196784) (xy -6.757271 -4.167324) (xy -6.828158 -4.129727) (xy -6.897860 -4.092276) (xy -6.977659 -4.049645) (xy -7.047309 -4.013353) (xy -7.102226 -3.985713) (xy -7.137829 -3.969038)
     (xy -7.149518 -3.965246) (xy -7.140629 -3.978055) (xy -7.112904 -4.012528) (xy -7.068331 -4.066309) (xy -7.008898 -4.137042) (xy -6.936594 -4.222373) (xy -6.853408 -4.319947) (xy -6.761328 -4.427406)
     (xy -6.662343 -4.542397) (xy -6.659352 -4.545864) (xy -6.559879 -4.660608) (xy -6.466583 -4.767180) (xy -6.381521 -4.863304) (xy -6.306749 -4.946705) (xy -6.244326 -5.015108) (xy -6.196307 -5.066236)
     (xy -6.164750 -5.097815) (xy -6.151713 -5.107570) (xy -6.151622 -5.107494) )(layer F.SilkS) (width  0.010000)
  )
  (fp_poly (pts (xy 3.249519 -2.514869) (xy 3.328954 -2.510039) (xy 3.514806 -2.482908) (xy 3.677572 -2.435334) (xy 3.817922 -2.366569) (xy 3.936524 -2.275862) (xy 4.034046 -2.162466) (xy 4.111157 -2.025631)
     (xy 4.168527 -1.864607) (xy 4.206823 -1.678647) (xy 4.224477 -1.506799) (xy 4.230014 -1.265075) (xy 4.214095 -1.046776) (xy 4.176640 -0.851798) (xy 4.117569 -0.680037) (xy 4.036805 -0.531391)
     (xy 3.934268 -0.405755) (xy 3.809878 -0.303027) (xy 3.663558 -0.223102) (xy 3.495228 -0.165879) (xy 3.304809 -0.131252) (xy 3.166033 -0.120689) (xy 3.075817 -0.118897) (xy 2.981608 -0.119882)
     (xy 2.896834 -0.123374) (xy 2.852586 -0.126923) (xy 2.669944 -0.155975) (xy 2.510300 -0.202776) (xy 2.372929 -0.268362) (xy 2.257108 -0.353772) (xy 2.162112 -0.460041) (xy 2.087217 -0.588206)
     (xy 2.031697 -0.739305) (xy 1.994830 -0.914375) (xy 1.975891 -1.114452) (xy 1.974432 -1.304458) (xy 2.440756 -1.304458) (xy 2.442969 -1.180275) (xy 2.452868 -1.059112) (xy 2.469674 -0.950040)
     (xy 2.492610 -0.862129) (xy 2.495831 -0.853183) (xy 2.547951 -0.750563) (xy 2.620036 -0.669463) (xy 2.713236 -0.609325) (xy 2.828704 -0.569591) (xy 2.967589 -0.549702) (xy 3.123341 -0.548729)
     (xy 3.199471 -0.554575) (xy 3.274245 -0.564250) (xy 3.334218 -0.575918) (xy 3.345870 -0.579094) (xy 3.466296 -0.629082) (xy 3.564223 -0.700811) (xy 3.640969 -0.795610) (xy 3.697848 -0.914808)
     (xy 3.707937 -0.944791) (xy 3.721170 -0.990504) (xy 3.730670 -1.034776) (xy 3.737031 -1.084183) (xy 3.740847 -1.145302) (xy 3.742714 -1.224710) (xy 3.743225 -1.328983) (xy 3.743225 -1.335169)
     (xy 3.742549 -1.445944) (xy 3.740217 -1.531057) (xy 3.735754 -1.596615) (xy 3.728684 -1.648725) (xy 3.718530 -1.693493) (xy 3.714117 -1.708699) (xy 3.663232 -1.834826) (xy 3.594249 -1.935891)
     (xy 3.505038 -2.014320) (xy 3.395652 -2.071671) (xy 3.321254 -2.091803) (xy 3.226279 -2.103610) (xy 3.120814 -2.107144) (xy 3.014949 -2.102457) (xy 2.918772 -2.089600) (xy 2.842879 -2.068827)
     (xy 2.731514 -2.013531) (xy 2.640531 -1.942038) (xy 2.568361 -1.851789) (xy 2.513437 -1.740225) (xy 2.474190 -1.604785) (xy 2.449053 -1.442910) (xy 2.447007 -1.422591) (xy 2.440756 -1.304458)
     (xy 1.974432 -1.304458) (xy 1.974154 -1.340573) (xy 1.975547 -1.382430) (xy 1.984857 -1.533894) (xy 2.000141 -1.657448) (xy 2.017455 -1.740489) (xy 2.077779 -1.918024) (xy 2.160755 -2.073619)
     (xy 2.265814 -2.206693) (xy 2.392388 -2.316666) (xy 2.539911 -2.402956) (xy 2.707813 -2.464984) (xy 2.732598 -2.471619) (xy 2.842741 -2.493192) (xy 2.973007 -2.508069) (xy 3.112299 -2.515532)
     (xy 3.249519 -2.514869) )(layer F.SilkS) (width  0.010000)
  )
  (fp_poly (pts (xy -2.448659 -2.487850) (xy -2.260014 -2.487761) (xy -2.100660 -2.487572) (xy -1.968095 -2.487195) (xy -1.859821 -2.486537) (xy -1.773337 -2.485507) (xy -1.706144 -2.484015) (xy -1.655741 -2.481970)
     (xy -1.619630 -2.479281) (xy -1.595311 -2.475856) (xy -1.580282 -2.471606) (xy -1.572046 -2.466438) (xy -1.568101 -2.460262) (xy -1.566679 -2.455758) (xy -1.563351 -2.428020) (xy -1.560590 -2.375926)
     (xy -1.558683 -2.306908) (xy -1.557915 -2.228401) (xy -1.557914 -2.227643) (xy -1.557697 -2.031317) (xy -1.664988 -2.041339) (xy -2.024238 -2.067962) (xy -2.379968 -2.080922) (xy -2.513007 -2.082089)
     (xy -2.808680 -2.082228) (xy -2.818888 -1.951096) (xy -2.823912 -1.868379) (xy -2.827586 -1.773312) (xy -2.829176 -1.685326) (xy -2.829192 -1.678557) (xy -2.829287 -1.537151) (xy -2.227064 -1.545388)
     (xy -1.624840 -1.553625) (xy -1.617820 -1.337107) (xy -1.615459 -1.257860) (xy -1.613860 -1.190989) (xy -1.613136 -1.142407) (xy -1.613398 -1.118026) (xy -1.613664 -1.116341) (xy -1.629645 -1.115808)
     (xy -1.672553 -1.116797) (xy -1.737569 -1.119132) (xy -1.819876 -1.122636) (xy -1.914656 -1.127133) (xy -1.932826 -1.128042) (xy -2.057265 -1.133460) (xy -2.196559 -1.138117) (xy -2.337874 -1.141671)
     (xy -2.468376 -1.143779) (xy -2.539206 -1.144211) (xy -2.829287 -1.144431) (xy -2.829192 -0.973561) (xy -2.828090 -0.884389) (xy -2.825222 -0.789505) (xy -2.821106 -0.704094) (xy -2.818888 -0.671559)
     (xy -2.808680 -0.540426) (xy -2.656061 -0.540861) (xy -2.595064 -0.541989) (xy -2.509317 -0.544906) (xy -2.405790 -0.549306) (xy -2.291454 -0.554881) (xy -2.173278 -0.561325) (xy -2.121965 -0.564351)
     (xy -2.009222 -0.570952) (xy -1.901825 -0.576846) (xy -1.805577 -0.581746) (xy -1.726280 -0.585362) (xy -1.669736 -0.587408) (xy -1.650529 -0.587758) (xy -1.560570 -0.588111) (xy -1.541522 -0.475185)
     (xy -1.530796 -0.318228) (xy -1.536112 -0.248683) (xy -1.549750 -0.135107) (xy -3.266396 -0.143337) (xy -3.266396 -0.949860) (xy -3.267139 -1.186156) (xy -3.269311 -1.411435) (xy -3.272825 -1.623022)
     (xy -3.277594 -1.818238) (xy -3.283530 -1.994408) (xy -3.290548 -2.148854) (xy -3.298560 -2.278899) (xy -3.307479 -2.381866) (xy -3.314781 -2.440166) (xy -3.322091 -2.488154) (xy -2.448659 -2.487850) )(layer F.SilkS) (width  0.010000)
  )
  (fp_poly (pts (xy 1.458778 -2.533027) (xy 1.568841 -2.518302) (xy 1.603828 -2.511174) (xy 1.594394 -1.799986) (xy 1.591830 -1.515354) (xy 1.592155 -1.259707) (xy 1.595457 -1.030361) (xy 1.601823 -0.824637)
     (xy 1.611339 -0.639851) (xy 1.624095 -0.473322) (xy 1.640176 -0.322369) (xy 1.643251 -0.298029) (xy 1.663297 -0.143054) (xy 1.116129 -0.143054) (xy 1.131237 -1.692804) (xy 1.095466 -1.637172)
     (xy 1.072353 -1.597721) (xy 1.038071 -1.534621) (xy 0.995150 -1.452907) (xy 0.946121 -1.357616) (xy 0.893515 -1.253784) (xy 0.839862 -1.146448) (xy 0.787694 -1.040644) (xy 0.739540 -0.941408)
     (xy 0.697933 -0.853776) (xy 0.665403 -0.782785) (xy 0.660154 -0.770902) (xy 0.623268 -0.683932) (xy 0.581298 -0.580627) (xy 0.539706 -0.474642) (xy 0.507583 -0.389533) (xy 0.468733 -0.289568)
     (xy 0.435835 -0.216739) (xy 0.409582 -0.172488) (xy 0.397917 -0.160647) (xy 0.360541 -0.147850) (xy 0.301605 -0.140422) (xy 0.230873 -0.138314) (xy 0.158111 -0.141473) (xy 0.093082 -0.149850)
     (xy 0.047684 -0.162457) (xy 0.018584 -0.177746) (xy -0.003377 -0.199253) (xy -0.023192 -0.234324) (xy -0.045855 -0.290304) (xy -0.053722 -0.311634) (xy -0.080504 -0.380633) (xy -0.116806 -0.467593)
     (xy -0.161044 -0.569217) (xy -0.211633 -0.682206) (xy -0.266990 -0.803262) (xy -0.325529 -0.929084) (xy -0.385666 -1.056376) (xy -0.445818 -1.181838) (xy -0.504400 -1.302171) (xy -0.559828 -1.414078)
     (xy -0.610517 -1.514258) (xy -0.654883 -1.599414) (xy -0.691342 -1.666246) (xy -0.718309 -1.711456) (xy -0.734200 -1.731746) (xy -0.736158 -1.732541) (xy -0.740031 -1.716919) (xy -0.742833 -1.671108)
     (xy -0.744547 -1.596692) (xy -0.745160 -1.495254) (xy -0.744655 -1.368378) (xy -0.743017 -1.217647) (xy -0.741875 -1.140457) (xy -0.738632 -0.958843) (xy -0.735004 -0.804508) (xy -0.730747 -0.672944)
     (xy -0.725619 -0.559641) (xy -0.719377 -0.460089) (xy -0.711779 -0.369780) (xy -0.702581 -0.284203) (xy -0.691541 -0.198850) (xy -0.690965 -0.194713) (xy -0.687903 -0.154629) (xy -0.691196 -0.132427)
     (xy -0.694427 -0.130711) (xy -0.713936 -0.132184) (xy -0.759618 -0.133980) (xy -0.825861 -0.135929) (xy -0.907050 -0.137857) (xy -0.967422 -0.139061) (xy -1.227522 -0.143859) (xy -1.217786 -0.242800)
     (xy -1.201811 -0.429116) (xy -1.187749 -0.641818) (xy -1.175814 -0.875546) (xy -1.166222 -1.124942) (xy -1.159185 -1.384646) (xy -1.154917 -1.649300) (xy -1.153663 -1.848097) (xy -1.152378 -2.512027)
     (xy -0.854076 -2.507734) (xy -0.555773 -2.503442) (xy -0.444332 -2.225282) (xy -0.405689 -2.132232) (xy -0.358983 -2.025340) (xy -0.305810 -1.907808) (xy -0.247767 -1.782837) (xy -0.186448 -1.653629)
     (xy -0.123452 -1.523384) (xy -0.060373 -1.395304) (xy 0.001191 -1.272591) (xy 0.059645 -1.158446) (xy 0.113392 -1.056070) (xy 0.160836 -0.968665) (xy 0.200381 -0.899431) (xy 0.230430 -0.851571)
     (xy 0.249387 -0.828285) (xy 0.253110 -0.826534) (xy 0.265961 -0.840164) (xy 0.290503 -0.878364) (xy 0.324562 -0.937100) (xy 0.365958 -1.012337) (xy 0.412514 -1.100042) (xy 0.462055 -1.196179)
     (xy 0.512401 -1.296715) (xy 0.561377 -1.397615) (xy 0.561918 -1.398749) (xy 0.672619 -1.637797) (xy 0.771598 -1.867039) (xy 0.865675 -2.102491) (xy 0.900269 -2.193492) (xy 0.931541 -2.276654)
     (xy 0.960003 -2.352143) (xy 0.983257 -2.413610) (xy 0.998902 -2.454707) (xy 1.003005 -2.465335) (xy 1.012595 -2.484521) (xy 1.027754 -2.497857) (xy 1.054884 -2.507573) (xy 1.100389 -2.515898)
     (xy 1.170671 -2.525061) (xy 1.176663 -2.525789) (xy 1.320982 -2.536268) (xy 1.458778 -2.533027) )(layer F.SilkS) (width  0.010000)
  )
  (fp_poly (pts (xy 6.642286 -2.522152) (xy 6.720267 -2.514789) (xy 6.780132 -2.502439) (xy 6.792553 -2.498003) (xy 6.837735 -2.479268) (xy 6.827825 -2.332407) (xy 6.810463 -2.031651) (xy 6.798187 -1.723377)
     (xy 6.791091 -1.414994) (xy 6.789268 -1.113907) (xy 6.792810 -0.827524) (xy 6.801813 -0.563250) (xy 6.804800 -0.503860) (xy 6.809841 -0.404841) (xy 6.813758 -0.317095) (xy 6.816384 -0.245389)
     (xy 6.817553 -0.194489) (xy 6.817095 -0.169162) (xy 6.816628 -0.167276) (xy 6.796646 -0.162195) (xy 6.751478 -0.157476) (xy 6.687727 -0.153338) (xy 6.611999 -0.149998) (xy 6.530895 -0.147677)
     (xy 6.451021 -0.146593) (xy 6.378979 -0.146964) (xy 6.321374 -0.149010) (xy 6.304361 -0.150299) (xy 6.182147 -0.161751) (xy 6.135762 -0.253639) (xy 6.058598 -0.396697) (xy 5.960458 -0.561931)
     (xy 5.842055 -0.748278) (xy 5.704100 -0.954671) (xy 5.547305 -1.180045) (xy 5.372382 -1.423334) (xy 5.181232 -1.681885) (xy 5.046620 -1.861705) (xy 5.033765 -1.769307) (xy 5.031105 -1.732177)
     (xy 5.029198 -1.667470) (xy 5.027998 -1.579389) (xy 5.027458 -1.472135) (xy 5.027531 -1.349911) (xy 5.028169 -1.216920) (xy 5.029327 -1.077364) (xy 5.030956 -0.935446) (xy 5.033010 -0.795367)
     (xy 5.035442 -0.661331) (xy 5.038205 -0.537540) (xy 5.041252 -0.428197) (xy 5.044536 -0.337503) (xy 5.048010 -0.269661) (xy 5.050919 -0.234450) (xy 5.056528 -0.177072) (xy 5.056340 -0.144744)
     (xy 5.049639 -0.131135) (xy 5.039034 -0.129477) (xy 5.015084 -0.131222) (xy 4.965802 -0.134433) (xy 4.897589 -0.138705) (xy 4.816848 -0.143634) (xy 4.785536 -0.145516) (xy 4.703908 -0.150654)
     (xy 4.634512 -0.155505) (xy 4.583073 -0.159630) (xy 4.555316 -0.162591) (xy 4.552114 -0.163364) (xy 4.551635 -0.179732) (xy 4.552645 -0.223134) (xy 4.554971 -0.288855) (xy 4.558440 -0.372184)
     (xy 4.562881 -0.468406) (xy 4.564471 -0.500986) (xy 4.567309 -0.578519) (xy 4.569514 -0.680426) (xy 4.571111 -0.802701) (xy 4.572127 -0.941335) (xy 4.572586 -1.092320) (xy 4.572515 -1.251647)
     (xy 4.571939 -1.415309) (xy 4.570886 -1.579297) (xy 4.569379 -1.739602) (xy 4.567445 -1.892218) (xy 4.565111 -2.033135) (xy 4.562401 -2.158345) (xy 4.559341 -2.263840) (xy 4.555958 -2.345612)
     (xy 4.552278 -2.399653) (xy 4.552231 -2.400126) (xy 4.543536 -2.487547) (xy 5.115636 -2.487547) (xy 5.288630 -2.225282) (xy 5.343884 -2.142958) (xy 5.410264 -2.046444) (xy 5.485694 -1.938568)
     (xy 5.568104 -1.822158) (xy 5.655418 -1.700040) (xy 5.745564 -1.575042) (xy 5.836467 -1.449993) (xy 5.926056 -1.327718) (xy 6.012256 -1.211047) (xy 6.092994 -1.102806) (xy 6.166197 -1.005823)
     (xy 6.229791 -0.922925) (xy 6.281702 -0.856940) (xy 6.319858 -0.810696) (xy 6.342185 -0.787020) (xy 6.344618 -0.785211) (xy 6.348897 -0.797508) (xy 6.352132 -0.837925) (xy 6.354381 -0.902809)
     (xy 6.355700 -0.988509) (xy 6.356146 -1.091374) (xy 6.355778 -1.207750) (xy 6.354653 -1.333988) (xy 6.352827 -1.466435) (xy 6.350358 -1.601440) (xy 6.347303 -1.735351) (xy 6.343720 -1.864517)
     (xy 6.339666 -1.985285) (xy 6.335198 -2.094005) (xy 6.330374 -2.187024) (xy 6.325250 -2.260692) (xy 6.320781 -2.304756) (xy 6.312401 -2.374245) (xy 6.306542 -2.431503) (xy 6.303853 -2.469547)
     (xy 6.304326 -2.481303) (xy 6.321329 -2.489460) (xy 6.360419 -2.500869) (xy 6.403269 -2.510888) (xy 6.473425 -2.520545) (xy 6.556552 -2.524185) (xy 6.642286 -2.522152) )(layer F.SilkS) (width  0.010000)
  )
)
