(module Housings_DFN_QFN:QFN-24-1EP_4x4mm_Pitch0.5mm (layer F.Cu) (tedit 57CD8684)
  (descr "24-Lead Plastic Quad Flat, No Lead Package (MJ) - 4x4x0.9 mm Body [QFN]; (see Microchip Packaging Specification 00000049BS.pdf)")
  (tags "QFN 0.5")
  (attr smd)
  (fp_text reference U3 (at 0 -3.375) (layer F.SilkS)
    (effects (font (size 1 1) (thickness 0.15)))
  )
  (fp_text value MPU6000 (at 0 3.375) (layer F.Fab)
    (effects (font (size 1 1) (thickness 0.15)))
  )
  (fp_line (start -2.65 -2.65) (end -2.65 2.65) (layer F.CrtYd) (width 0.05))
  (fp_line (start 2.65 -2.65) (end 2.65 2.65) (layer F.CrtYd) (width 0.05))
  (fp_line (start -2.65 -2.65) (end 2.65 -2.65) (layer F.CrtYd) (width 0.05))
  (fp_line (start -2.65 2.65) (end 2.65 2.65) (layer F.CrtYd) (width 0.05))
  (fp_line (start 2.15 -2.15) (end 2.15 -1.625) (layer F.SilkS) (width 0.15))
  (fp_line (start -2.15 2.15) (end -2.15 1.625) (layer F.SilkS) (width 0.15))
  (fp_line (start 2.15 2.15) (end 2.15 1.625) (layer F.SilkS) (width 0.15))
  (fp_line (start -2.15 -2.15) (end -1.625 -2.15) (layer F.SilkS) (width 0.15))
  (fp_line (start -2.15 2.15) (end -1.625 2.15) (layer F.SilkS) (width 0.15))
  (fp_line (start 2.15 2.15) (end 1.625 2.15) (layer F.SilkS) (width 0.15))
  (fp_line (start 2.15 -2.15) (end 1.625 -2.15) (layer F.SilkS) (width 0.15))
  (pad 1 smd rect (at -2.0955 -1.25) (size 1.1 0.3) (layers F.Cu F.Paste F.Mask))
  (pad 2 smd rect (at -2.0955 -0.75) (size 1.1 0.3) (layers F.Cu F.Paste F.Mask))
  (pad 3 smd rect (at -2.0955 -0.254) (size 1.1 0.3) (layers F.Cu F.Paste F.Mask))
  (pad 4 smd rect (at -2.0955 0.25) (size 1.1 0.3) (layers F.Cu F.Paste F.Mask))
  (pad 5 smd rect (at -2.0955 0.75) (size 1.1 0.3) (layers F.Cu F.Paste F.Mask))
  (pad 6 smd rect (at -2.0955 1.25) (size 1.1 0.3) (layers F.Cu F.Paste F.Mask))
  (pad 7 smd rect (at -1.25 2.0955 90) (size 1.1 0.3) (layers F.Cu F.Paste F.Mask))
  (pad 8 smd rect (at -0.75 2.0955 90) (size 1.1 0.3) (layers F.Cu F.Paste F.Mask))
  (pad 9 smd rect (at -0.25 2.0955 90) (size 1.1 0.3) (layers F.Cu F.Paste F.Mask))
  (pad 10 smd rect (at 0.25 2.0955 90) (size 1.1 0.3) (layers F.Cu F.Paste F.Mask))
  (pad 11 smd rect (at 0.75 2.0955 90) (size 1.1 0.3) (layers F.Cu F.Paste F.Mask))
  (pad 12 smd rect (at 1.25 2.0955 90) (size 1.1 0.3) (layers F.Cu F.Paste F.Mask))
  (pad 13 smd rect (at 2.0955 1.25) (size 1.1 0.3) (layers F.Cu F.Paste F.Mask))
  (pad 14 smd rect (at 2.0955 0.75) (size 1.1 0.3) (layers F.Cu F.Paste F.Mask))
  (pad 15 smd rect (at 2.0955 0.25) (size 1.1 0.3) (layers F.Cu F.Paste F.Mask))
  (pad 16 smd rect (at 2.0955 -0.25) (size 1.1 0.3) (layers F.Cu F.Paste F.Mask))
  (pad 17 smd rect (at 2.0955 -0.75) (size 1.1 0.3) (layers F.Cu F.Paste F.Mask))
  (pad 18 smd rect (at 2.0955 -1.25) (size 1.1 0.3) (layers F.Cu F.Paste F.Mask))
  (pad 19 smd rect (at 1.25 -2.0955 90) (size 1.1 0.3) (layers F.Cu F.Paste F.Mask))
  (pad 20 smd rect (at 0.75 -2.0955 90) (size 1.1 0.3) (layers F.Cu F.Paste F.Mask))
  (pad 21 smd rect (at 0.25 -2.0955 90) (size 1.1 0.3) (layers F.Cu F.Paste F.Mask))
  (pad 22 smd rect (at -0.25 -2.0955 90) (size 1.1 0.3) (layers F.Cu F.Paste F.Mask))
  (pad 23 smd rect (at -0.75 -2.0955 90) (size 1.1 0.3) (layers F.Cu F.Paste F.Mask))
  (pad 24 smd rect (at -1.25 -2.0955 90) (size 1.1 0.3) (layers F.Cu F.Paste F.Mask))
  (model Housings_DFN_QFN.3dshapes/QFN-24-1EP_4x4mm_Pitch0.5mm.wrl
    (at (xyz 0 0 0))
    (scale (xyz 1 1 1))
    (rotate (xyz 0 0 0))
  )
)
