(module QFN-24_3x3mm_Pitch0.4mm_LONGPAD (layer F.Cu) (tedit 57FCE3A3)
  (descr "24-Lead Plastic QFN (3mm x 3mm); Pitch 0.4mm")
  (tags "QFN 0.4")
  (attr smd)
  (fp_text reference REF** (at 0 -2.6035) (layer F.SilkS)
    (effects (font (size 0.7 0.7) (thickness 0.15)))
  )
  (fp_text value QFN-24_3x3mm_0.4mm (at 0 2.921) (layer F.Fab)
    (effects (font (size 1 1) (thickness 0.15)))
  )
  (fp_line (start 2.025 -2.025) (end 2.025 2.025) (layer F.CrtYd) (width 0.05))
  (fp_line (start 2.025 2.025) (end -2.025 2.025) (layer F.CrtYd) (width 0.05))
  (fp_line (start -2.025 2.025) (end -2.025 -2.025) (layer F.CrtYd) (width 0.05))
  (fp_line (start -2.025 -2.025) (end 2.025 -2.025) (layer F.CrtYd) (width 0.05))
  (fp_line (start -1.6 1.6) (end -1.6 1.2) (layer F.SilkS) (width 0.15))
  (fp_line (start -1.6 1.6) (end -1.2 1.6) (layer F.SilkS) (width 0.15))
  (fp_line (start 1.6 1.6) (end 1.6 1.2) (layer F.SilkS) (width 0.15))
  (fp_line (start 1.6 1.6) (end 1.2 1.6) (layer F.SilkS) (width 0.15))
  (fp_line (start 1.6 -1.6) (end 1.6 -1.2) (layer F.SilkS) (width 0.15))
  (fp_line (start 1.6 -1.6) (end 1.2 -1.6) (layer F.SilkS) (width 0.15))
  (fp_line (start -1.6 -1.6) (end -1.2 -1.6) (layer F.SilkS) (width 0.15))
  (fp_circle (center -2.032 -1.8415) (end -1.9685 -1.651) (layer F.SilkS) (width 0.15))
  (pad 24 smd rect (at -1 -1.5494 90) (size 0.65 0.2) (layers F.Cu F.Paste F.Mask))
  (pad 23 smd rect (at -0.6 -1.5494 90) (size 0.65 0.2) (layers F.Cu F.Paste F.Mask))
  (pad 22 smd rect (at -0.2 -1.5494 90) (size 0.65 0.2) (layers F.Cu F.Paste F.Mask))
  (pad 21 smd rect (at 0.2 -1.5494 90) (size 0.65 0.2) (layers F.Cu F.Paste F.Mask))
  (pad 20 smd rect (at 0.6 -1.5494 90) (size 0.65 0.2) (layers F.Cu F.Paste F.Mask))
  (pad 19 smd rect (at 1 -1.5494 90) (size 0.65 0.2) (layers F.Cu F.Paste F.Mask))
  (pad 18 smd rect (at 1.5494 -1) (size 0.65 0.2) (layers F.Cu F.Paste F.Mask))
  (pad 17 smd rect (at 1.5494 -0.6) (size 0.65 0.2) (layers F.Cu F.Paste F.Mask))
  (pad 16 smd rect (at 1.5494 -0.2) (size 0.65 0.2) (layers F.Cu F.Paste F.Mask))
  (pad 15 smd rect (at 1.5494 0.2) (size 0.65 0.2) (layers F.Cu F.Paste F.Mask))
  (pad 14 smd rect (at 1.5494 0.6) (size 0.65 0.2) (layers F.Cu F.Paste F.Mask))
  (pad 13 smd rect (at 1.5494 1) (size 0.65 0.2) (layers F.Cu F.Paste F.Mask))
  (pad 12 smd rect (at 1 1.5494 90) (size 0.65 0.2) (layers F.Cu F.Paste F.Mask))
  (pad 11 smd rect (at 0.6 1.5494 90) (size 0.65 0.2) (layers F.Cu F.Paste F.Mask))
  (pad 10 smd rect (at 0.2 1.5494 90) (size 0.65 0.2) (layers F.Cu F.Paste F.Mask))
  (pad 9 smd rect (at -0.2 1.5494 90) (size 0.65 0.2) (layers F.Cu F.Paste F.Mask))
  (pad 8 smd rect (at -0.6 1.5494 90) (size 0.65 0.2) (layers F.Cu F.Paste F.Mask))
  (pad 7 smd rect (at -1 1.5494 90) (size 0.65 0.2) (layers F.Cu F.Paste F.Mask))
  (pad 6 smd rect (at -1.5494 1) (size 0.65 0.2) (layers F.Cu F.Paste F.Mask))
  (pad 5 smd rect (at -1.5494 0.6) (size 0.65 0.2) (layers F.Cu F.Paste F.Mask))
  (pad 4 smd rect (at -1.5494 0.2) (size 0.65 0.2) (layers F.Cu F.Paste F.Mask))
  (pad 3 smd rect (at -1.5494 -0.2) (size 0.65 0.2) (layers F.Cu F.Paste F.Mask))
  (pad 2 smd rect (at -1.5494 -0.6) (size 0.65 0.2) (layers F.Cu F.Paste F.Mask))
  (pad 1 smd rect (at -1.5494 -1) (size 0.65 0.2) (layers F.Cu F.Paste F.Mask))
)
