(module SMD_3528 (layer F.Cu) (tedit 577F9E1F)
  (fp_text reference REF** (at 0 -2.667) (layer F.SilkS)
    (effects (font (size 1 1) (thickness 0.15)))
  )
  (fp_text value SMD_3528 (at 0 2.667) (layer F.Fab)
    (effects (font (size 1 1) (thickness 0.15)))
  )
  (fp_line (start 1.524 1.397) (end 1.27 1.397) (layer F.SilkS) (width 0.15))
  (fp_line (start 1.524 -1.524) (end 1.524 1.397) (layer F.SilkS) (width 0.15))
  (fp_line (start 1.143 -1.524) (end 1.524 -1.524) (layer F.SilkS) (width 0.15))
  (fp_line (start -1.524 -1.524) (end -1.27 -1.524) (layer F.SilkS) (width 0.15))
  (fp_line (start -1.524 1.016) (end -1.524 -1.524) (layer F.SilkS) (width 0.15))
  (fp_line (start -1.143 1.397) (end -1.524 1.016) (layer F.SilkS) (width 0.15))
  (pad 1 smd rect (at 0 1.27) (size 2.2 0.8) (layers F.Cu F.Paste F.Mask))
  (pad 2 smd rect (at 0 -1.43) (size 2.2 0.8) (layers F.Cu F.Paste F.Mask))
)
