(module SOP_Adv_2-5Q1S (layer F.Cu) (tedit 5A2F8346)
  (attr smd)
  (fp_text reference REF** (at -3.7338 0 90) (layer F.SilkS)
    (effects (font (size 1 1) (thickness 0.15)))
  )
  (fp_text value SOP_Adv_2-5Q1S (at 3.683 0 90) (layer F.Fab)
    (effects (font (size 1 1) (thickness 0.15)))
  )
  (fp_line (start -2.4892 -2.5146) (end -2.9464 -2.5146) (layer F.SilkS) (width 0.3))
  (fp_line (start -2.9464 -2.5146) (end -2.9464 2.667) (layer F.SilkS) (width 0.3))
  (fp_line (start -2.9464 2.667) (end -2.4892 3.1242) (layer F.SilkS) (width 0.3))
  (fp_line (start 2.413 -2.6162) (end 2.794 -2.6162) (layer F.SilkS) (width 0.15))
  (fp_line (start 2.794 -2.6162) (end 2.794 3.175) (layer F.SilkS) (width 0.15))
  (fp_line (start 2.794 3.175) (end 2.413 3.175) (layer F.SilkS) (width 0.15))
  (fp_line (start 1.4224 3.175) (end 1.143 3.175) (layer F.SilkS) (width 0.15))
  (fp_line (start 0.1524 3.175) (end -0.127 3.175) (layer F.SilkS) (width 0.15))
  (fp_line (start -1.143 3.175) (end -1.4224 3.175) (layer F.SilkS) (width 0.15))
  (fp_line (start -1.1176 -2.6162) (end -1.397 -2.6162) (layer F.SilkS) (width 0.15))
  (fp_line (start 0.1524 -2.6162) (end -0.127 -2.6162) (layer F.SilkS) (width 0.15))
  (fp_line (start 1.4224 -2.6162) (end 1.143 -2.6162) (layer F.SilkS) (width 0.15))
  (fp_circle (center -3.429 3.429) (end -3.1496 3.5814) (layer F.SilkS) (width 0.15))
  (pad 3 smd rect (at -1.905 3.175) (size 0.6 1) (layers F.Cu F.Paste F.Mask))
  (pad 3 smd rect (at -0.635 3.175) (size 0.6 1) (layers F.Cu F.Paste F.Mask))
  (pad 3 smd rect (at 0.635 3.175) (size 0.6 1) (layers F.Cu F.Paste F.Mask))
  (pad 2 smd rect (at 1.905 3.175) (size 0.6 1) (layers F.Cu F.Paste F.Mask))
  (pad 1 smd rect (at 1.905 -2.625) (size 0.6 1) (layers F.Cu F.Paste F.Mask))
  (pad 1 smd rect (at -1.905 -2.625) (size 0.6 1) (layers F.Cu F.Paste F.Mask))
  (pad 1 smd rect (at -0.635 -2.625) (size 0.6 1) (layers F.Cu F.Paste F.Mask))
  (pad 1 smd rect (at 0.635 -2.625) (size 0.6 1) (layers F.Cu F.Paste F.Mask))
  (pad 1 smd rect (at 0 -0.381 180) (size 4.4 3.5) (layers F.Cu F.Paste F.Mask))
)
