(module VIA-0.8mm (layer F.Cu) (tedit 56B33E5A)
  (fp_text reference REF** (at 0 1.27) (layer F.SilkS) hide
    (effects (font (size 0.5 0.5) (thickness 0.125)))
  )
  (fp_text value VIA-0.8mm (at 0 -1.27) (layer F.Fab) hide
    (effects (font (size 0.5 0.5) (thickness 0.125)))
  )
  (pad "" thru_hole circle (at 0 0) (size 1.3 1.3) (drill 0.8) (layers *.Cu)
    (zone_connect 2))
)
